{
	"__header__": {
		"fileType": "LEd Project JSON",
		"app": "LEd",
		"appAuthor": "Sebastien Benard",
		"appVersion": "0.2.1-beta",
		"url": "https://deepnight.net/tools/led-2d-level-editor/"
	},
	"name": "static-void",
	"jsonVersion": "0.2.1",
	"defaultPivotX": 0.0,
	"defaultPivotY": 0.0,
	"defaultGridSize": 48,
	"bgColor": "#7F8093",
	"nextUid": 13,
	"minifyJson": false,
	"defs": {
		"layers": [
			{
				"identifier": "Wood2",
				"type": "Tiles",
				"uid": 9,
				"gridSize": 48,
				"displayOpacity": 1.0,
				"intGridValues": [ { "identifier": null, "color": "#000000" } ],
				"autoTilesetDefUid": null,
				"autoRuleGroups": [],
				"autoSourceLayerDefUid": null,
				"tilesetDefUid": 1,
				"tilePivotX": 0,
				"tilePivotY": 0
			},
			{
				"identifier": "Wood3",
				"type": "Tiles",
				"uid": 10,
				"gridSize": 48,
				"displayOpacity": 1.0,
				"intGridValues": [ { "identifier": null, "color": "#000000" } ],
				"autoTilesetDefUid": null,
				"autoRuleGroups": [],
				"autoSourceLayerDefUid": null,
				"tilesetDefUid": 1,
				"tilePivotX": 0,
				"tilePivotY": 0
			},
			{
				"identifier": "Objects2",
				"type": "Tiles",
				"uid": 8,
				"gridSize": 48,
				"displayOpacity": 1.0,
				"intGridValues": [ { "identifier": null, "color": "#000000" } ],
				"autoTilesetDefUid": null,
				"autoRuleGroups": [],
				"autoSourceLayerDefUid": null,
				"tilesetDefUid": 11,
				"tilePivotX": 0,
				"tilePivotY": 0
			},
			{
				"identifier": "Objects",
				"type": "Tiles",
				"uid": 7,
				"gridSize": 48,
				"displayOpacity": 1.0,
				"intGridValues": [ { "identifier": null, "color": "#000000" } ],
				"autoTilesetDefUid": null,
				"autoRuleGroups": [],
				"autoSourceLayerDefUid": null,
				"tilesetDefUid": 6,
				"tilePivotX": 0,
				"tilePivotY": 0
			},
			{
				"identifier": "Entities",
				"type": "Entities",
				"uid": 4,
				"gridSize": 48,
				"displayOpacity": 1.0,
				"intGridValues": [ { "identifier": null, "color": "#000000" } ],
				"autoTilesetDefUid": null,
				"autoRuleGroups": [],
				"autoSourceLayerDefUid": null,
				"tilesetDefUid": null,
				"tilePivotX": 0,
				"tilePivotY": 0
			},
			{
				"identifier": "Wood1",
				"type": "Tiles",
				"uid": 3,
				"gridSize": 48,
				"displayOpacity": 1.0,
				"intGridValues": [ { "identifier": null, "color": "#000000" } ],
				"autoTilesetDefUid": null,
				"autoRuleGroups": [],
				"autoSourceLayerDefUid": null,
				"tilesetDefUid": 1,
				"tilePivotX": 0,
				"tilePivotY": 0
			}
		],
		"entities": [
			{
				"identifier": "Player_start",
				"uid": 5,
				"width": 48,
				"height": 48,
				"color": "#94D9B3",
				"renderMode": "Ellipse",
				"tilesetId": null,
				"tileId": null,
				"tileRenderMode": "Stretch",
				"maxPerLevel": 1,
				"limitBehavior": "MoveLastOne",
				"pivotX": 0.0,
				"pivotY": 0.0,
				"fieldDefs": []
			}
		],
		"tilesets": [
			{
				"identifier": "Wood1",
				"uid": 1,
				"relPath": "../tilesets/wood_1.png",
				"pxWid": 480,
				"pxHei": 480,
				"tileGridSize": 48,
				"spacing": 0,
				"padding": 0,
				"savedSelections": []
			},
			{
				"identifier": "Items_1",
				"uid": 6,
				"relPath": "../tilesets/items_1.png",
				"pxWid": 768,
				"pxHei": 768,
				"tileGridSize": 48,
				"spacing": 0,
				"padding": 0,
				"savedSelections": []
			},
			{
				"identifier": "Items_2",
				"uid": 11,
				"relPath": "../tilesets/items_2.png",
				"pxWid": 768,
				"pxHei": 768,
				"tileGridSize": 48,
				"spacing": 0,
				"padding": 0,
				"savedSelections": []
			}
		],
		"enums": [],
		"externalEnums": []
	},
	"levels": [ {
		"identifier": "Level",
		"uid": 0,
		"pxWid": 2128,
		"pxHei": 1312,
		"layerInstances": [
			{
				"__identifier": "Wood2",
				"__type": "Tiles",
				"__cWid": 45,
				"__cHei": 28,
				"__gridSize": 48,
				"levelId": 0,
				"layerDefUid": 9,
				"pxOffsetX": 0,
				"pxOffsetY": 0,
				"intGrid": [],
				"autoTiles": [],
				"seed": 6800110,
				"gridTiles": [
					{ "coordId": 19, "tileId": 10, "__tileX": 0, "__tileY": 48 },
					{ "coordId": 39, "tileId": 13, "__tileX": 144, "__tileY": 48 },
					{ "coordId": 64, "tileId": 20, "__tileX": 0, "__tileY": 96 },
					{ "coordId": 84, "tileId": 23, "__tileX": 144, "__tileY": 96 },
					{ "coordId": 109, "tileId": 30, "__tileX": 0, "__tileY": 144 },
					{ "coordId": 129, "tileId": 33, "__tileX": 144, "__tileY": 144 },
					{ "coordId": 154, "tileId": 20, "__tileX": 0, "__tileY": 96 },
					{ "coordId": 174, "tileId": 33, "__tileX": 144, "__tileY": 144 },
					{ "coordId": 199, "tileId": 30, "__tileX": 0, "__tileY": 144 },
					{ "coordId": 219, "tileId": 43, "__tileX": 144, "__tileY": 192 },
					{ "coordId": 244, "tileId": 40, "__tileX": 0, "__tileY": 192 },
					{ "coordId": 264, "tileId": 43, "__tileX": 144, "__tileY": 192 },
					{ "coordId": 274, "tileId": 10, "__tileX": 0, "__tileY": 48 },
					{ "coordId": 289, "tileId": 50, "__tileX": 0, "__tileY": 240 },
					{ "coordId": 309, "tileId": 43, "__tileX": 144, "__tileY": 192 },
					{ "coordId": 319, "tileId": 20, "__tileX": 0, "__tileY": 96 },
					{ "coordId": 354, "tileId": 43, "__tileX": 144, "__tileY": 192 },
					{ "coordId": 364, "tileId": 30, "__tileX": 0, "__tileY": 144 },
					{ "coordId": 399, "tileId": 43, "__tileX": 144, "__tileY": 192 },
					{ "coordId": 409, "tileId": 40, "__tileX": 0, "__tileY": 192 },
					{ "coordId": 412, "tileId": 11, "__tileX": 48, "__tileY": 48 },
					{ "coordId": 413, "tileId": 12, "__tileX": 96, "__tileY": 48 },
					{ "coordId": 414, "tileId": 11, "__tileX": 48, "__tileY": 48 },
					{ "coordId": 415, "tileId": 11, "__tileX": 48, "__tileY": 48 },
					{ "coordId": 416, "tileId": 11, "__tileX": 48, "__tileY": 48 },
					{ "coordId": 417, "tileId": 11, "__tileX": 48, "__tileY": 48 },
					{ "coordId": 418, "tileId": 11, "__tileX": 48, "__tileY": 48 },
					{ "coordId": 419, "tileId": 11, "__tileX": 48, "__tileY": 48 },
					{ "coordId": 420, "tileId": 11, "__tileX": 48, "__tileY": 48 },
					{ "coordId": 421, "tileId": 11, "__tileX": 48, "__tileY": 48 },
					{ "coordId": 422, "tileId": 11, "__tileX": 48, "__tileY": 48 },
					{ "coordId": 423, "tileId": 11, "__tileX": 48, "__tileY": 48 },
					{ "coordId": 424, "tileId": 12, "__tileX": 96, "__tileY": 48 },
					{ "coordId": 444, "tileId": 43, "__tileX": 144, "__tileY": 192 },
					{ "coordId": 454, "tileId": 30, "__tileX": 0, "__tileY": 144 },
					{ "coordId": 457, "tileId": 21, "__tileX": 48, "__tileY": 96 },
					{ "coordId": 458, "tileId": 22, "__tileX": 96, "__tileY": 96 },
					{ "coordId": 459, "tileId": 21, "__tileX": 48, "__tileY": 96 },
					{ "coordId": 460, "tileId": 21, "__tileX": 48, "__tileY": 96 },
					{ "coordId": 461, "tileId": 21, "__tileX": 48, "__tileY": 96 },
					{ "coordId": 462, "tileId": 21, "__tileX": 48, "__tileY": 96 },
					{ "coordId": 463, "tileId": 21, "__tileX": 48, "__tileY": 96 },
					{ "coordId": 464, "tileId": 21, "__tileX": 48, "__tileY": 96 },
					{ "coordId": 465, "tileId": 21, "__tileX": 48, "__tileY": 96 },
					{ "coordId": 466, "tileId": 21, "__tileX": 48, "__tileY": 96 },
					{ "coordId": 467, "tileId": 21, "__tileX": 48, "__tileY": 96 },
					{ "coordId": 468, "tileId": 21, "__tileX": 48, "__tileY": 96 },
					{ "coordId": 469, "tileId": 22, "__tileX": 96, "__tileY": 96 },
					{ "coordId": 489, "tileId": 43, "__tileX": 144, "__tileY": 192 },
					{ "coordId": 499, "tileId": 40, "__tileX": 0, "__tileY": 192 },
					{ "coordId": 534, "tileId": 43, "__tileX": 144, "__tileY": 192 },
					{ "coordId": 544, "tileId": 20, "__tileX": 0, "__tileY": 96 },
					{ "coordId": 547, "tileId": 68, "__tileX": 384, "__tileY": 288 },
					{ "coordId": 552, "tileId": 10, "__tileX": 0, "__tileY": 48 },
					{ "coordId": 564, "tileId": 13, "__tileX": 144, "__tileY": 48 },
					{ "coordId": 579, "tileId": 43, "__tileX": 144, "__tileY": 192 },
					{ "coordId": 589, "tileId": 30, "__tileX": 0, "__tileY": 144 },
					{ "coordId": 592, "tileId": 78, "__tileX": 384, "__tileY": 336 },
					{ "coordId": 597, "tileId": 20, "__tileX": 0, "__tileY": 96 },
					{ "coordId": 609, "tileId": 23, "__tileX": 144, "__tileY": 96 },
					{ "coordId": 624, "tileId": 43, "__tileX": 144, "__tileY": 192 },
					{ "coordId": 634, "tileId": 40, "__tileX": 0, "__tileY": 192 },
					{ "coordId": 637, "tileId": 78, "__tileX": 384, "__tileY": 336 },
					{ "coordId": 642, "tileId": 30, "__tileX": 0, "__tileY": 144 },
					{ "coordId": 654, "tileId": 33, "__tileX": 144, "__tileY": 144 },
					{ "coordId": 669, "tileId": 43, "__tileX": 144, "__tileY": 192 },
					{ "coordId": 679, "tileId": 50, "__tileX": 0, "__tileY": 240 },
					{ "coordId": 682, "tileId": 53, "__tileX": 144, "__tileY": 240 },
					{ "coordId": 699, "tileId": 43, "__tileX": 144, "__tileY": 192 },
					{ "coordId": 714, "tileId": 43, "__tileX": 144, "__tileY": 192 },
					{ "coordId": 744, "tileId": 23, "__tileX": 144, "__tileY": 96 },
					{ "coordId": 759, "tileId": 43, "__tileX": 144, "__tileY": 192 },
					{ "coordId": 789, "tileId": 33, "__tileX": 144, "__tileY": 144 },
					{ "coordId": 804, "tileId": 43, "__tileX": 144, "__tileY": 192 },
					{ "coordId": 810, "tileId": 10, "__tileX": 0, "__tileY": 48 },
					{ "coordId": 815, "tileId": 51, "__tileX": 48, "__tileY": 240 },
					{ "coordId": 816, "tileId": 51, "__tileX": 48, "__tileY": 240 },
					{ "coordId": 817, "tileId": 51, "__tileX": 48, "__tileY": 240 },
					{ "coordId": 818, "tileId": 51, "__tileX": 48, "__tileY": 240 },
					{ "coordId": 819, "tileId": 51, "__tileX": 48, "__tileY": 240 },
					{ "coordId": 820, "tileId": 51, "__tileX": 48, "__tileY": 240 },
					{ "coordId": 821, "tileId": 51, "__tileX": 48, "__tileY": 240 },
					{ "coordId": 822, "tileId": 68, "__tileX": 384, "__tileY": 288 },
					{ "coordId": 834, "tileId": 23, "__tileX": 144, "__tileY": 96 },
					{ "coordId": 849, "tileId": 43, "__tileX": 144, "__tileY": 192 },
					{ "coordId": 855, "tileId": 20, "__tileX": 0, "__tileY": 96 },
					{ "coordId": 867, "tileId": 78, "__tileX": 384, "__tileY": 336 },
					{ "coordId": 879, "tileId": 33, "__tileX": 144, "__tileY": 144 },
					{ "coordId": 894, "tileId": 23, "__tileX": 144, "__tileY": 96 },
					{ "coordId": 900, "tileId": 30, "__tileX": 0, "__tileY": 144 },
					{ "coordId": 912, "tileId": 78, "__tileX": 384, "__tileY": 336 },
					{ "coordId": 924, "tileId": 43, "__tileX": 144, "__tileY": 192 },
					{ "coordId": 939, "tileId": 33, "__tileX": 144, "__tileY": 144 },
					{ "coordId": 945, "tileId": 40, "__tileX": 0, "__tileY": 192 },
					{ "coordId": 957, "tileId": 78, "__tileX": 384, "__tileY": 336 },
					{ "coordId": 969, "tileId": 43, "__tileX": 144, "__tileY": 192 },
					{ "coordId": 984, "tileId": 43, "__tileX": 144, "__tileY": 192 },
					{ "coordId": 990, "tileId": 20, "__tileX": 0, "__tileY": 96 },
					{ "coordId": 1002, "tileId": 78, "__tileX": 384, "__tileY": 336 },
					{ "coordId": 1003, "tileId": 51, "__tileX": 48, "__tileY": 240 },
					{ "coordId": 1004, "tileId": 52, "__tileX": 96, "__tileY": 240 },
					{ "coordId": 1005, "tileId": 52, "__tileX": 96, "__tileY": 240 },
					{ "coordId": 1006, "tileId": 52, "__tileX": 96, "__tileY": 240 },
					{ "coordId": 1007, "tileId": 52, "__tileX": 96, "__tileY": 240 },
					{ "coordId": 1008, "tileId": 52, "__tileX": 96, "__tileY": 240 },
					{ "coordId": 1009, "tileId": 52, "__tileX": 96, "__tileY": 240 },
					{ "coordId": 1010, "tileId": 52, "__tileX": 96, "__tileY": 240 },
					{ "coordId": 1011, "tileId": 52, "__tileX": 96, "__tileY": 240 },
					{ "coordId": 1012, "tileId": 52, "__tileX": 96, "__tileY": 240 },
					{ "coordId": 1013, "tileId": 52, "__tileX": 96, "__tileY": 240 },
					{ "coordId": 1014, "tileId": 53, "__tileX": 144, "__tileY": 240 },
					{ "coordId": 1035, "tileId": 20, "__tileX": 0, "__tileY": 96 },
					{ "coordId": 1047, "tileId": 78, "__tileX": 384, "__tileY": 336 },
					{ "coordId": 1080, "tileId": 30, "__tileX": 0, "__tileY": 144 },
					{ "coordId": 1092, "tileId": 78, "__tileX": 384, "__tileY": 336 },
					{ "coordId": 1125, "tileId": 40, "__tileX": 0, "__tileY": 192 },
					{ "coordId": 1137, "tileId": 78, "__tileX": 384, "__tileY": 336 },
					{ "coordId": 1170, "tileId": 50, "__tileX": 0, "__tileY": 240 },
					{ "coordId": 1171, "tileId": 51, "__tileX": 48, "__tileY": 240 },
					{ "coordId": 1172, "tileId": 52, "__tileX": 96, "__tileY": 240 },
					{ "coordId": 1173, "tileId": 51, "__tileX": 48, "__tileY": 240 },
					{ "coordId": 1174, "tileId": 51, "__tileX": 48, "__tileY": 240 },
					{ "coordId": 1175, "tileId": 51, "__tileX": 48, "__tileY": 240 },
					{ "coordId": 1176, "tileId": 51, "__tileX": 48, "__tileY": 240 },
					{ "coordId": 1177, "tileId": 51, "__tileX": 48, "__tileY": 240 },
					{ "coordId": 1178, "tileId": 51, "__tileX": 48, "__tileY": 240 },
					{ "coordId": 1179, "tileId": 52, "__tileX": 96, "__tileY": 240 },
					{ "coordId": 1180, "tileId": 51, "__tileX": 48, "__tileY": 240 },
					{ "coordId": 1181, "tileId": 52, "__tileX": 96, "__tileY": 240 },
					{ "coordId": 1182, "tileId": 51, "__tileX": 48, "__tileY": 240 }
				],
				"entityInstances": []
			},
			{
				"__identifier": "Wood3",
				"__type": "Tiles",
				"__cWid": 45,
				"__cHei": 28,
				"__gridSize": 48,
				"levelId": 0,
				"layerDefUid": 10,
				"pxOffsetX": 0,
				"pxOffsetY": 0,
				"intGrid": [],
				"autoTiles": [],
				"seed": 2773872,
				"gridTiles": [
					{ "coordId": 412, "tileId": 51, "__tileX": 48, "__tileY": 240 },
					{ "coordId": 413, "tileId": 52, "__tileX": 96, "__tileY": 240 },
					{ "coordId": 815, "tileId": 11, "__tileX": 48, "__tileY": 48 },
					{ "coordId": 818, "tileId": 5, "__tileX": 240, "__tileY": 0 },
					{ "coordId": 819, "tileId": 7, "__tileX": 336, "__tileY": 0 },
					{ "coordId": 822, "tileId": 11, "__tileX": 48, "__tileY": 48 },
					{ "coordId": 863, "tileId": 15, "__tileX": 240, "__tileY": 48 },
					{ "coordId": 864, "tileId": 17, "__tileX": 336, "__tileY": 48 },
					{ "coordId": 867, "tileId": 21, "__tileX": 48, "__tileY": 96 },
					{ "coordId": 908, "tileId": 15, "__tileX": 240, "__tileY": 48 },
					{ "coordId": 909, "tileId": 17, "__tileX": 336, "__tileY": 48 },
					{ "coordId": 953, "tileId": 25, "__tileX": 240, "__tileY": 96 },
					{ "coordId": 954, "tileId": 27, "__tileX": 336, "__tileY": 96 },
					{ "coordId": 998, "tileId": 35, "__tileX": 240, "__tileY": 144 },
					{ "coordId": 999, "tileId": 37, "__tileX": 336, "__tileY": 144 },
					{ "coordId": 1013, "tileId": 50, "__tileX": 0, "__tileY": 240 },
					{ "coordId": 1014, "tileId": 51, "__tileX": 48, "__tileY": 240 },
					{ "coordId": 1015, "tileId": 51, "__tileX": 48, "__tileY": 240 },
					{ "coordId": 1016, "tileId": 51, "__tileX": 48, "__tileY": 240 },
					{ "coordId": 1017, "tileId": 51, "__tileX": 48, "__tileY": 240 },
					{ "coordId": 1018, "tileId": 51, "__tileX": 48, "__tileY": 240 },
					{ "coordId": 1019, "tileId": 51, "__tileX": 48, "__tileY": 240 },
					{ "coordId": 1020, "tileId": 51, "__tileX": 48, "__tileY": 240 },
					{ "coordId": 1021, "tileId": 51, "__tileX": 48, "__tileY": 240 },
					{ "coordId": 1022, "tileId": 51, "__tileX": 48, "__tileY": 240 },
					{ "coordId": 1023, "tileId": 51, "__tileX": 48, "__tileY": 240 },
					{ "coordId": 1024, "tileId": 51, "__tileX": 48, "__tileY": 240 },
					{ "coordId": 1025, "tileId": 51, "__tileX": 48, "__tileY": 240 },
					{ "coordId": 1026, "tileId": 52, "__tileX": 96, "__tileY": 240 },
					{ "coordId": 1027, "tileId": 51, "__tileX": 48, "__tileY": 240 },
					{ "coordId": 1028, "tileId": 52, "__tileX": 96, "__tileY": 240 },
					{ "coordId": 1029, "tileId": 53, "__tileX": 144, "__tileY": 240 }
				],
				"entityInstances": []
			},
			{
				"__identifier": "Objects2",
				"__type": "Tiles",
				"__cWid": 45,
				"__cHei": 28,
				"__gridSize": 48,
				"levelId": 0,
				"layerDefUid": 8,
				"pxOffsetX": 0,
				"pxOffsetY": 0,
				"intGrid": [],
				"autoTiles": [],
				"seed": 5687132,
				"gridTiles": [
					{ "coordId": 200, "tileId": 23, "__tileX": 336, "__tileY": 48 },
					{ "coordId": 201, "tileId": 23, "__tileX": 336, "__tileY": 48 },
					{ "coordId": 202, "tileId": 23, "__tileX": 336, "__tileY": 48 },
					{ "coordId": 203, "tileId": 23, "__tileX": 336, "__tileY": 48 },
					{ "coordId": 204, "tileId": 23, "__tileX": 336, "__tileY": 48 },
					{ "coordId": 205, "tileId": 19, "__tileX": 144, "__tileY": 48 },
					{ "coordId": 206, "tileId": 20, "__tileX": 192, "__tileY": 48 },
					{ "coordId": 207, "tileId": 21, "__tileX": 240, "__tileY": 48 },
					{ "coordId": 208, "tileId": 22, "__tileX": 288, "__tileY": 48 },
					{ "coordId": 209, "tileId": 23, "__tileX": 336, "__tileY": 48 },
					{ "coordId": 210, "tileId": 23, "__tileX": 336, "__tileY": 48 },
					{ "coordId": 211, "tileId": 23, "__tileX": 336, "__tileY": 48 },
					{ "coordId": 212, "tileId": 23, "__tileX": 336, "__tileY": 48 },
					{ "coordId": 213, "tileId": 23, "__tileX": 336, "__tileY": 48 },
					{ "coordId": 214, "tileId": 19, "__tileX": 144, "__tileY": 48 },
					{ "coordId": 215, "tileId": 20, "__tileX": 192, "__tileY": 48 },
					{ "coordId": 216, "tileId": 21, "__tileX": 240, "__tileY": 48 },
					{ "coordId": 217, "tileId": 22, "__tileX": 288, "__tileY": 48 },
					{ "coordId": 218, "tileId": 23, "__tileX": 336, "__tileY": 48 },
					{ "coordId": 245, "tileId": 39, "__tileX": 336, "__tileY": 96 },
					{ "coordId": 246, "tileId": 39, "__tileX": 336, "__tileY": 96 },
					{ "coordId": 247, "tileId": 39, "__tileX": 336, "__tileY": 96 },
					{ "coordId": 248, "tileId": 39, "__tileX": 336, "__tileY": 96 },
					{ "coordId": 249, "tileId": 39, "__tileX": 336, "__tileY": 96 },
					{ "coordId": 250, "tileId": 35, "__tileX": 144, "__tileY": 96 },
					{ "coordId": 251, "tileId": 36, "__tileX": 192, "__tileY": 96 },
					{ "coordId": 252, "tileId": 37, "__tileX": 240, "__tileY": 96 },
					{ "coordId": 253, "tileId": 38, "__tileX": 288, "__tileY": 96 },
					{ "coordId": 254, "tileId": 39, "__tileX": 336, "__tileY": 96 },
					{ "coordId": 255, "tileId": 39, "__tileX": 336, "__tileY": 96 },
					{ "coordId": 256, "tileId": 39, "__tileX": 336, "__tileY": 96 },
					{ "coordId": 257, "tileId": 39, "__tileX": 336, "__tileY": 96 },
					{ "coordId": 258, "tileId": 39, "__tileX": 336, "__tileY": 96 },
					{ "coordId": 259, "tileId": 35, "__tileX": 144, "__tileY": 96 },
					{ "coordId": 260, "tileId": 36, "__tileX": 192, "__tileY": 96 },
					{ "coordId": 261, "tileId": 37, "__tileX": 240, "__tileY": 96 },
					{ "coordId": 262, "tileId": 38, "__tileX": 288, "__tileY": 96 },
					{ "coordId": 263, "tileId": 39, "__tileX": 336, "__tileY": 96 },
					{ "coordId": 295, "tileId": 51, "__tileX": 144, "__tileY": 144 },
					{ "coordId": 296, "tileId": 52, "__tileX": 192, "__tileY": 144 },
					{ "coordId": 297, "tileId": 53, "__tileX": 240, "__tileY": 144 },
					{ "coordId": 298, "tileId": 54, "__tileX": 288, "__tileY": 144 },
					{ "coordId": 304, "tileId": 51, "__tileX": 144, "__tileY": 144 },
					{ "coordId": 305, "tileId": 52, "__tileX": 192, "__tileY": 144 },
					{ "coordId": 306, "tileId": 53, "__tileX": 240, "__tileY": 144 },
					{ "coordId": 307, "tileId": 54, "__tileX": 288, "__tileY": 144 },
					{ "coordId": 340, "tileId": 67, "__tileX": 144, "__tileY": 192 },
					{ "coordId": 341, "tileId": 68, "__tileX": 192, "__tileY": 192 },
					{ "coordId": 342, "tileId": 69, "__tileX": 240, "__tileY": 192 },
					{ "coordId": 343, "tileId": 70, "__tileX": 288, "__tileY": 192 },
					{ "coordId": 349, "tileId": 67, "__tileX": 144, "__tileY": 192 },
					{ "coordId": 350, "tileId": 68, "__tileX": 192, "__tileY": 192 },
					{ "coordId": 351, "tileId": 69, "__tileX": 240, "__tileY": 192 },
					{ "coordId": 352, "tileId": 70, "__tileX": 288, "__tileY": 192 },
					{ "coordId": 385, "tileId": 83, "__tileX": 144, "__tileY": 240 },
					{ "coordId": 386, "tileId": 84, "__tileX": 192, "__tileY": 240 },
					{ "coordId": 387, "tileId": 85, "__tileX": 240, "__tileY": 240 },
					{ "coordId": 388, "tileId": 86, "__tileX": 288, "__tileY": 240 },
					{ "coordId": 394, "tileId": 83, "__tileX": 144, "__tileY": 240 },
					{ "coordId": 395, "tileId": 84, "__tileX": 192, "__tileY": 240 },
					{ "coordId": 396, "tileId": 85, "__tileX": 240, "__tileY": 240 },
					{ "coordId": 397, "tileId": 86, "__tileX": 288, "__tileY": 240 },
					{ "coordId": 434, "tileId": 198, "__tileX": 288, "__tileY": 576 },
					{ "coordId": 435, "tileId": 199, "__tileX": 336, "__tileY": 576 },
					{ "coordId": 436, "tileId": 200, "__tileX": 384, "__tileY": 576 },
					{ "coordId": 437, "tileId": 201, "__tileX": 432, "__tileY": 576 },
					{ "coordId": 438, "tileId": 202, "__tileX": 480, "__tileY": 576 },
					{ "coordId": 479, "tileId": 214, "__tileX": 288, "__tileY": 624 },
					{ "coordId": 480, "tileId": 215, "__tileX": 336, "__tileY": 624 },
					{ "coordId": 481, "tileId": 216, "__tileX": 384, "__tileY": 624 },
					{ "coordId": 482, "tileId": 217, "__tileX": 432, "__tileY": 624 },
					{ "coordId": 483, "tileId": 218, "__tileX": 480, "__tileY": 624 },
					{ "coordId": 524, "tileId": 230, "__tileX": 288, "__tileY": 672 },
					{ "coordId": 525, "tileId": 231, "__tileX": 336, "__tileY": 672 },
					{ "coordId": 526, "tileId": 232, "__tileX": 384, "__tileY": 672 },
					{ "coordId": 527, "tileId": 233, "__tileX": 432, "__tileY": 672 },
					{ "coordId": 528, "tileId": 234, "__tileX": 480, "__tileY": 672 },
					{ "coordId": 555, "tileId": 209, "__tileX": 48, "__tileY": 624 },
					{ "coordId": 556, "tileId": 210, "__tileX": 96, "__tileY": 624 },
					{ "coordId": 600, "tileId": 225, "__tileX": 48, "__tileY": 672 },
					{ "coordId": 601, "tileId": 226, "__tileX": 96, "__tileY": 672 },
					{ "coordId": 608, "tileId": 234, "__tileX": 480, "__tileY": 672 },
					{ "coordId": 645, "tileId": 241, "__tileX": 48, "__tileY": 720 },
					{ "coordId": 646, "tileId": 242, "__tileX": 96, "__tileY": 720 },
					{ "coordId": 660, "tileId": 219, "__tileX": 528, "__tileY": 624 },
					{ "coordId": 661, "tileId": 220, "__tileX": 576, "__tileY": 624 },
					{ "coordId": 662, "tileId": 221, "__tileX": 624, "__tileY": 624 },
					{ "coordId": 663, "tileId": 222, "__tileX": 672, "__tileY": 624 },
					{ "coordId": 705, "tileId": 235, "__tileX": 528, "__tileY": 672 },
					{ "coordId": 706, "tileId": 236, "__tileX": 576, "__tileY": 672 },
					{ "coordId": 707, "tileId": 237, "__tileX": 624, "__tileY": 672 },
					{ "coordId": 708, "tileId": 238, "__tileX": 672, "__tileY": 672 }
				],
				"entityInstances": []
			},
			{
				"__identifier": "Objects",
				"__type": "Tiles",
				"__cWid": 45,
				"__cHei": 28,
				"__gridSize": 48,
				"levelId": 0,
				"layerDefUid": 7,
				"pxOffsetX": 0,
				"pxOffsetY": 0,
				"intGrid": [],
				"autoTiles": [],
				"seed": 2561238,
				"gridTiles": [
					{ "coordId": 30, "tileId": 183, "__tileX": 336, "__tileY": 528 },
					{ "coordId": 31, "tileId": 184, "__tileX": 384, "__tileY": 528 },
					{ "coordId": 32, "tileId": 185, "__tileX": 432, "__tileY": 528 },
					{ "coordId": 33, "tileId": 186, "__tileX": 480, "__tileY": 528 },
					{ "coordId": 75, "tileId": 199, "__tileX": 336, "__tileY": 576 },
					{ "coordId": 76, "tileId": 200, "__tileX": 384, "__tileY": 576 },
					{ "coordId": 77, "tileId": 201, "__tileX": 432, "__tileY": 576 },
					{ "coordId": 78, "tileId": 202, "__tileX": 480, "__tileY": 576 },
					{ "coordId": 293, "tileId": 102, "__tileX": 288, "__tileY": 288 },
					{ "coordId": 294, "tileId": 103, "__tileX": 336, "__tileY": 288 },
					{ "coordId": 338, "tileId": 118, "__tileX": 288, "__tileY": 336 },
					{ "coordId": 339, "tileId": 119, "__tileX": 336, "__tileY": 336 },
					{ "coordId": 383, "tileId": 134, "__tileX": 288, "__tileY": 384 },
					{ "coordId": 384, "tileId": 135, "__tileX": 336, "__tileY": 384 },
					{ "coordId": 520, "tileId": 99, "__tileX": 144, "__tileY": 288 },
					{ "coordId": 521, "tileId": 100, "__tileX": 192, "__tileY": 288 },
					{ "coordId": 531, "tileId": 99, "__tileX": 144, "__tileY": 288 },
					{ "coordId": 532, "tileId": 100, "__tileX": 192, "__tileY": 288 },
					{ "coordId": 558, "tileId": 150, "__tileX": 288, "__tileY": 432 },
					{ "coordId": 559, "tileId": 151, "__tileX": 336, "__tileY": 432 },
					{ "coordId": 560, "tileId": 183, "__tileX": 336, "__tileY": 528 },
					{ "coordId": 561, "tileId": 184, "__tileX": 384, "__tileY": 528 },
					{ "coordId": 562, "tileId": 185, "__tileX": 432, "__tileY": 528 },
					{ "coordId": 563, "tileId": 186, "__tileX": 480, "__tileY": 528 },
					{ "coordId": 565, "tileId": 115, "__tileX": 144, "__tileY": 336 },
					{ "coordId": 566, "tileId": 116, "__tileX": 192, "__tileY": 336 },
					{ "coordId": 576, "tileId": 115, "__tileX": 144, "__tileY": 336 },
					{ "coordId": 577, "tileId": 116, "__tileX": 192, "__tileY": 336 },
					{ "coordId": 593, "tileId": 70, "__tileX": 288, "__tileY": 192 },
					{ "coordId": 594, "tileId": 71, "__tileX": 336, "__tileY": 192 },
					{ "coordId": 598, "tileId": 102, "__tileX": 288, "__tileY": 288 },
					{ "coordId": 599, "tileId": 103, "__tileX": 336, "__tileY": 288 },
					{ "coordId": 603, "tileId": 166, "__tileX": 288, "__tileY": 480 },
					{ "coordId": 604, "tileId": 167, "__tileX": 336, "__tileY": 480 },
					{ "coordId": 605, "tileId": 199, "__tileX": 336, "__tileY": 576 },
					{ "coordId": 606, "tileId": 200, "__tileX": 384, "__tileY": 576 },
					{ "coordId": 607, "tileId": 201, "__tileX": 432, "__tileY": 576 },
					{ "coordId": 608, "tileId": 202, "__tileX": 480, "__tileY": 576 },
					{ "coordId": 638, "tileId": 86, "__tileX": 288, "__tileY": 240 },
					{ "coordId": 639, "tileId": 87, "__tileX": 336, "__tileY": 240 },
					{ "coordId": 643, "tileId": 118, "__tileX": 288, "__tileY": 336 },
					{ "coordId": 644, "tileId": 119, "__tileX": 336, "__tileY": 336 },
					{ "coordId": 655, "tileId": 99, "__tileX": 144, "__tileY": 288 },
					{ "coordId": 656, "tileId": 100, "__tileX": 192, "__tileY": 288 },
					{ "coordId": 666, "tileId": 99, "__tileX": 144, "__tileY": 288 },
					{ "coordId": 667, "tileId": 100, "__tileX": 192, "__tileY": 288 },
					{ "coordId": 688, "tileId": 134, "__tileX": 288, "__tileY": 384 },
					{ "coordId": 689, "tileId": 135, "__tileX": 336, "__tileY": 384 },
					{ "coordId": 700, "tileId": 115, "__tileX": 144, "__tileY": 336 },
					{ "coordId": 701, "tileId": 116, "__tileX": 192, "__tileY": 336 },
					{ "coordId": 711, "tileId": 115, "__tileX": 144, "__tileY": 336 },
					{ "coordId": 712, "tileId": 116, "__tileX": 192, "__tileY": 336 },
					{ "coordId": 734, "tileId": 96, "__tileX": 0, "__tileY": 288 },
					{ "coordId": 735, "tileId": 97, "__tileX": 48, "__tileY": 288 },
					{ "coordId": 742, "tileId": 96, "__tileX": 0, "__tileY": 288 },
					{ "coordId": 743, "tileId": 97, "__tileX": 48, "__tileY": 288 },
					{ "coordId": 779, "tileId": 112, "__tileX": 0, "__tileY": 336 },
					{ "coordId": 780, "tileId": 113, "__tileX": 48, "__tileY": 336 },
					{ "coordId": 787, "tileId": 112, "__tileX": 0, "__tileY": 336 },
					{ "coordId": 788, "tileId": 113, "__tileX": 48, "__tileY": 336 },
					{ "coordId": 790, "tileId": 99, "__tileX": 144, "__tileY": 288 },
					{ "coordId": 791, "tileId": 100, "__tileX": 192, "__tileY": 288 },
					{ "coordId": 801, "tileId": 99, "__tileX": 144, "__tileY": 288 },
					{ "coordId": 802, "tileId": 100, "__tileX": 192, "__tileY": 288 },
					{ "coordId": 813, "tileId": 171, "__tileX": 528, "__tileY": 480 },
					{ "coordId": 814, "tileId": 172, "__tileX": 576, "__tileY": 480 },
					{ "coordId": 817, "tileId": 10, "__tileX": 480, "__tileY": 0 },
					{ "coordId": 820, "tileId": 16, "__tileX": 0, "__tileY": 48 },
					{ "coordId": 821, "tileId": 17, "__tileX": 48, "__tileY": 48 },
					{ "coordId": 824, "tileId": 96, "__tileX": 0, "__tileY": 288 },
					{ "coordId": 825, "tileId": 97, "__tileX": 48, "__tileY": 288 },
					{ "coordId": 832, "tileId": 96, "__tileX": 0, "__tileY": 288 },
					{ "coordId": 833, "tileId": 97, "__tileX": 48, "__tileY": 288 },
					{ "coordId": 835, "tileId": 115, "__tileX": 144, "__tileY": 336 },
					{ "coordId": 836, "tileId": 116, "__tileX": 192, "__tileY": 336 },
					{ "coordId": 846, "tileId": 115, "__tileX": 144, "__tileY": 336 },
					{ "coordId": 847, "tileId": 116, "__tileX": 192, "__tileY": 336 },
					{ "coordId": 856, "tileId": 131, "__tileX": 144, "__tileY": 384 },
					{ "coordId": 857, "tileId": 132, "__tileX": 192, "__tileY": 384 },
					{ "coordId": 858, "tileId": 187, "__tileX": 528, "__tileY": 528 },
					{ "coordId": 859, "tileId": 188, "__tileX": 576, "__tileY": 528 },
					{ "coordId": 862, "tileId": 26, "__tileX": 480, "__tileY": 48 },
					{ "coordId": 865, "tileId": 32, "__tileX": 0, "__tileY": 96 },
					{ "coordId": 866, "tileId": 33, "__tileX": 48, "__tileY": 96 },
					{ "coordId": 869, "tileId": 112, "__tileX": 0, "__tileY": 336 },
					{ "coordId": 870, "tileId": 113, "__tileX": 48, "__tileY": 336 },
					{ "coordId": 877, "tileId": 112, "__tileX": 0, "__tileY": 336 },
					{ "coordId": 878, "tileId": 113, "__tileX": 48, "__tileY": 336 },
					{ "coordId": 901, "tileId": 147, "__tileX": 144, "__tileY": 432 },
					{ "coordId": 902, "tileId": 148, "__tileX": 192, "__tileY": 432 },
					{ "coordId": 907, "tileId": 42, "__tileX": 480, "__tileY": 96 },
					{ "coordId": 910, "tileId": 48, "__tileX": 0, "__tileY": 144 },
					{ "coordId": 911, "tileId": 49, "__tileX": 48, "__tileY": 144 },
					{ "coordId": 930, "tileId": 216, "__tileX": 384, "__tileY": 624 },
					{ "coordId": 931, "tileId": 217, "__tileX": 432, "__tileY": 624 },
					{ "coordId": 948, "tileId": 235, "__tileX": 528, "__tileY": 672 },
					{ "coordId": 949, "tileId": 236, "__tileX": 576, "__tileY": 672 },
					{ "coordId": 975, "tileId": 232, "__tileX": 384, "__tileY": 672 },
					{ "coordId": 976, "tileId": 233, "__tileX": 432, "__tileY": 672 },
					{ "coordId": 993, "tileId": 251, "__tileX": 528, "__tileY": 720 },
					{ "coordId": 994, "tileId": 252, "__tileX": 576, "__tileY": 720 }
				],
				"entityInstances": []
			},
			{
				"__identifier": "Entities",
				"__type": "Entities",
				"__cWid": 45,
				"__cHei": 28,
				"__gridSize": 48,
				"levelId": 0,
				"layerDefUid": 4,
				"pxOffsetX": 0,
				"pxOffsetY": 0,
				"intGrid": [],
				"autoTiles": [],
				"seed": 9806449,
				"gridTiles": [],
				"entityInstances": [ { "__identifier": "Player_start", "__cx": 18, "__cy": 18, "defUid": 5, "x": 864, "y": 864, "fieldInstances": [] } ]
			},
			{
				"__identifier": "Wood1",
				"__type": "Tiles",
				"__cWid": 45,
				"__cHei": 28,
				"__gridSize": 48,
				"levelId": 0,
				"layerDefUid": 3,
				"pxOffsetX": 0,
				"pxOffsetY": 0,
				"intGrid": [],
				"autoTiles": [],
				"seed": 359867,
				"gridTiles": [
					{ "coordId": 20, "tileId": 11, "__tileX": 48, "__tileY": 48 },
					{ "coordId": 21, "tileId": 12, "__tileX": 96, "__tileY": 48 },
					{ "coordId": 22, "tileId": 12, "__tileX": 96, "__tileY": 48 },
					{ "coordId": 23, "tileId": 12, "__tileX": 96, "__tileY": 48 },
					{ "coordId": 24, "tileId": 12, "__tileX": 96, "__tileY": 48 },
					{ "coordId": 25, "tileId": 12, "__tileX": 96, "__tileY": 48 },
					{ "coordId": 26, "tileId": 12, "__tileX": 96, "__tileY": 48 },
					{ "coordId": 27, "tileId": 12, "__tileX": 96, "__tileY": 48 },
					{ "coordId": 28, "tileId": 12, "__tileX": 96, "__tileY": 48 },
					{ "coordId": 29, "tileId": 11, "__tileX": 48, "__tileY": 48 },
					{ "coordId": 30, "tileId": 11, "__tileX": 48, "__tileY": 48 },
					{ "coordId": 31, "tileId": 11, "__tileX": 48, "__tileY": 48 },
					{ "coordId": 32, "tileId": 11, "__tileX": 48, "__tileY": 48 },
					{ "coordId": 33, "tileId": 11, "__tileX": 48, "__tileY": 48 },
					{ "coordId": 34, "tileId": 12, "__tileX": 96, "__tileY": 48 },
					{ "coordId": 35, "tileId": 11, "__tileX": 48, "__tileY": 48 },
					{ "coordId": 36, "tileId": 11, "__tileX": 48, "__tileY": 48 },
					{ "coordId": 37, "tileId": 11, "__tileX": 48, "__tileY": 48 },
					{ "coordId": 38, "tileId": 12, "__tileX": 96, "__tileY": 48 },
					{ "coordId": 65, "tileId": 21, "__tileX": 48, "__tileY": 96 },
					{ "coordId": 66, "tileId": 22, "__tileX": 96, "__tileY": 96 },
					{ "coordId": 67, "tileId": 22, "__tileX": 96, "__tileY": 96 },
					{ "coordId": 68, "tileId": 22, "__tileX": 96, "__tileY": 96 },
					{ "coordId": 69, "tileId": 22, "__tileX": 96, "__tileY": 96 },
					{ "coordId": 70, "tileId": 22, "__tileX": 96, "__tileY": 96 },
					{ "coordId": 71, "tileId": 22, "__tileX": 96, "__tileY": 96 },
					{ "coordId": 72, "tileId": 22, "__tileX": 96, "__tileY": 96 },
					{ "coordId": 73, "tileId": 22, "__tileX": 96, "__tileY": 96 },
					{ "coordId": 74, "tileId": 21, "__tileX": 48, "__tileY": 96 },
					{ "coordId": 75, "tileId": 21, "__tileX": 48, "__tileY": 96 },
					{ "coordId": 76, "tileId": 21, "__tileX": 48, "__tileY": 96 },
					{ "coordId": 77, "tileId": 21, "__tileX": 48, "__tileY": 96 },
					{ "coordId": 78, "tileId": 21, "__tileX": 48, "__tileY": 96 },
					{ "coordId": 79, "tileId": 22, "__tileX": 96, "__tileY": 96 },
					{ "coordId": 80, "tileId": 21, "__tileX": 48, "__tileY": 96 },
					{ "coordId": 81, "tileId": 21, "__tileX": 48, "__tileY": 96 },
					{ "coordId": 82, "tileId": 21, "__tileX": 48, "__tileY": 96 },
					{ "coordId": 83, "tileId": 22, "__tileX": 96, "__tileY": 96 },
					{ "coordId": 110, "tileId": 42, "__tileX": 96, "__tileY": 192 },
					{ "coordId": 111, "tileId": 42, "__tileX": 96, "__tileY": 192 },
					{ "coordId": 112, "tileId": 42, "__tileX": 96, "__tileY": 192 },
					{ "coordId": 113, "tileId": 42, "__tileX": 96, "__tileY": 192 },
					{ "coordId": 114, "tileId": 42, "__tileX": 96, "__tileY": 192 },
					{ "coordId": 115, "tileId": 42, "__tileX": 96, "__tileY": 192 },
					{ "coordId": 116, "tileId": 42, "__tileX": 96, "__tileY": 192 },
					{ "coordId": 117, "tileId": 42, "__tileX": 96, "__tileY": 192 },
					{ "coordId": 118, "tileId": 42, "__tileX": 96, "__tileY": 192 },
					{ "coordId": 119, "tileId": 42, "__tileX": 96, "__tileY": 192 },
					{ "coordId": 120, "tileId": 42, "__tileX": 96, "__tileY": 192 },
					{ "coordId": 121, "tileId": 42, "__tileX": 96, "__tileY": 192 },
					{ "coordId": 122, "tileId": 42, "__tileX": 96, "__tileY": 192 },
					{ "coordId": 123, "tileId": 42, "__tileX": 96, "__tileY": 192 },
					{ "coordId": 124, "tileId": 42, "__tileX": 96, "__tileY": 192 },
					{ "coordId": 125, "tileId": 42, "__tileX": 96, "__tileY": 192 },
					{ "coordId": 126, "tileId": 42, "__tileX": 96, "__tileY": 192 },
					{ "coordId": 127, "tileId": 42, "__tileX": 96, "__tileY": 192 },
					{ "coordId": 128, "tileId": 42, "__tileX": 96, "__tileY": 192 },
					{ "coordId": 155, "tileId": 42, "__tileX": 96, "__tileY": 192 },
					{ "coordId": 156, "tileId": 42, "__tileX": 96, "__tileY": 192 },
					{ "coordId": 157, "tileId": 42, "__tileX": 96, "__tileY": 192 },
					{ "coordId": 158, "tileId": 42, "__tileX": 96, "__tileY": 192 },
					{ "coordId": 159, "tileId": 42, "__tileX": 96, "__tileY": 192 },
					{ "coordId": 160, "tileId": 42, "__tileX": 96, "__tileY": 192 },
					{ "coordId": 161, "tileId": 42, "__tileX": 96, "__tileY": 192 },
					{ "coordId": 162, "tileId": 42, "__tileX": 96, "__tileY": 192 },
					{ "coordId": 163, "tileId": 42, "__tileX": 96, "__tileY": 192 },
					{ "coordId": 164, "tileId": 42, "__tileX": 96, "__tileY": 192 },
					{ "coordId": 165, "tileId": 42, "__tileX": 96, "__tileY": 192 },
					{ "coordId": 166, "tileId": 42, "__tileX": 96, "__tileY": 192 },
					{ "coordId": 167, "tileId": 42, "__tileX": 96, "__tileY": 192 },
					{ "coordId": 168, "tileId": 42, "__tileX": 96, "__tileY": 192 },
					{ "coordId": 169, "tileId": 42, "__tileX": 96, "__tileY": 192 },
					{ "coordId": 170, "tileId": 42, "__tileX": 96, "__tileY": 192 },
					{ "coordId": 171, "tileId": 42, "__tileX": 96, "__tileY": 192 },
					{ "coordId": 172, "tileId": 42, "__tileX": 96, "__tileY": 192 },
					{ "coordId": 173, "tileId": 42, "__tileX": 96, "__tileY": 192 },
					{ "coordId": 200, "tileId": 42, "__tileX": 96, "__tileY": 192 },
					{ "coordId": 201, "tileId": 42, "__tileX": 96, "__tileY": 192 },
					{ "coordId": 202, "tileId": 42, "__tileX": 96, "__tileY": 192 },
					{ "coordId": 203, "tileId": 42, "__tileX": 96, "__tileY": 192 },
					{ "coordId": 204, "tileId": 42, "__tileX": 96, "__tileY": 192 },
					{ "coordId": 205, "tileId": 42, "__tileX": 96, "__tileY": 192 },
					{ "coordId": 206, "tileId": 42, "__tileX": 96, "__tileY": 192 },
					{ "coordId": 207, "tileId": 42, "__tileX": 96, "__tileY": 192 },
					{ "coordId": 208, "tileId": 42, "__tileX": 96, "__tileY": 192 },
					{ "coordId": 209, "tileId": 42, "__tileX": 96, "__tileY": 192 },
					{ "coordId": 210, "tileId": 42, "__tileX": 96, "__tileY": 192 },
					{ "coordId": 211, "tileId": 42, "__tileX": 96, "__tileY": 192 },
					{ "coordId": 212, "tileId": 42, "__tileX": 96, "__tileY": 192 },
					{ "coordId": 213, "tileId": 42, "__tileX": 96, "__tileY": 192 },
					{ "coordId": 214, "tileId": 42, "__tileX": 96, "__tileY": 192 },
					{ "coordId": 215, "tileId": 42, "__tileX": 96, "__tileY": 192 },
					{ "coordId": 216, "tileId": 42, "__tileX": 96, "__tileY": 192 },
					{ "coordId": 217, "tileId": 42, "__tileX": 96, "__tileY": 192 },
					{ "coordId": 245, "tileId": 14, "__tileX": 192, "__tileY": 48 },
					{ "coordId": 246, "tileId": 14, "__tileX": 192, "__tileY": 48 },
					{ "coordId": 247, "tileId": 14, "__tileX": 192, "__tileY": 48 },
					{ "coordId": 248, "tileId": 14, "__tileX": 192, "__tileY": 48 },
					{ "coordId": 249, "tileId": 14, "__tileX": 192, "__tileY": 48 },
					{ "coordId": 250, "tileId": 14, "__tileX": 192, "__tileY": 48 },
					{ "coordId": 251, "tileId": 14, "__tileX": 192, "__tileY": 48 },
					{ "coordId": 252, "tileId": 14, "__tileX": 192, "__tileY": 48 },
					{ "coordId": 253, "tileId": 14, "__tileX": 192, "__tileY": 48 },
					{ "coordId": 254, "tileId": 14, "__tileX": 192, "__tileY": 48 },
					{ "coordId": 255, "tileId": 14, "__tileX": 192, "__tileY": 48 },
					{ "coordId": 256, "tileId": 14, "__tileX": 192, "__tileY": 48 },
					{ "coordId": 257, "tileId": 14, "__tileX": 192, "__tileY": 48 },
					{ "coordId": 258, "tileId": 14, "__tileX": 192, "__tileY": 48 },
					{ "coordId": 259, "tileId": 14, "__tileX": 192, "__tileY": 48 },
					{ "coordId": 260, "tileId": 14, "__tileX": 192, "__tileY": 48 },
					{ "coordId": 261, "tileId": 14, "__tileX": 192, "__tileY": 48 },
					{ "coordId": 262, "tileId": 42, "__tileX": 96, "__tileY": 192 },
					{ "coordId": 263, "tileId": 42, "__tileX": 96, "__tileY": 192 },
					{ "coordId": 275, "tileId": 11, "__tileX": 48, "__tileY": 48 },
					{ "coordId": 276, "tileId": 11, "__tileX": 48, "__tileY": 48 },
					{ "coordId": 277, "tileId": 11, "__tileX": 48, "__tileY": 48 },
					{ "coordId": 278, "tileId": 11, "__tileX": 48, "__tileY": 48 },
					{ "coordId": 279, "tileId": 11, "__tileX": 48, "__tileY": 48 },
					{ "coordId": 280, "tileId": 11, "__tileX": 48, "__tileY": 48 },
					{ "coordId": 281, "tileId": 11, "__tileX": 48, "__tileY": 48 },
					{ "coordId": 282, "tileId": 11, "__tileX": 48, "__tileY": 48 },
					{ "coordId": 283, "tileId": 11, "__tileX": 48, "__tileY": 48 },
					{ "coordId": 284, "tileId": 12, "__tileX": 96, "__tileY": 48 },
					{ "coordId": 285, "tileId": 11, "__tileX": 48, "__tileY": 48 },
					{ "coordId": 286, "tileId": 11, "__tileX": 48, "__tileY": 48 },
					{ "coordId": 287, "tileId": 11, "__tileX": 48, "__tileY": 48 },
					{ "coordId": 288, "tileId": 11, "__tileX": 48, "__tileY": 48 },
					{ "coordId": 289, "tileId": 12, "__tileX": 96, "__tileY": 48 },
					{ "coordId": 290, "tileId": 24, "__tileX": 192, "__tileY": 96 },
					{ "coordId": 291, "tileId": 24, "__tileX": 192, "__tileY": 96 },
					{ "coordId": 292, "tileId": 24, "__tileX": 192, "__tileY": 96 },
					{ "coordId": 293, "tileId": 24, "__tileX": 192, "__tileY": 96 },
					{ "coordId": 294, "tileId": 24, "__tileX": 192, "__tileY": 96 },
					{ "coordId": 295, "tileId": 24, "__tileX": 192, "__tileY": 96 },
					{ "coordId": 296, "tileId": 24, "__tileX": 192, "__tileY": 96 },
					{ "coordId": 297, "tileId": 24, "__tileX": 192, "__tileY": 96 },
					{ "coordId": 298, "tileId": 24, "__tileX": 192, "__tileY": 96 },
					{ "coordId": 299, "tileId": 24, "__tileX": 192, "__tileY": 96 },
					{ "coordId": 300, "tileId": 24, "__tileX": 192, "__tileY": 96 },
					{ "coordId": 301, "tileId": 24, "__tileX": 192, "__tileY": 96 },
					{ "coordId": 302, "tileId": 24, "__tileX": 192, "__tileY": 96 },
					{ "coordId": 303, "tileId": 24, "__tileX": 192, "__tileY": 96 },
					{ "coordId": 304, "tileId": 24, "__tileX": 192, "__tileY": 96 },
					{ "coordId": 305, "tileId": 24, "__tileX": 192, "__tileY": 96 },
					{ "coordId": 306, "tileId": 24, "__tileX": 192, "__tileY": 96 },
					{ "coordId": 307, "tileId": 42, "__tileX": 96, "__tileY": 192 },
					{ "coordId": 308, "tileId": 42, "__tileX": 96, "__tileY": 192 },
					{ "coordId": 320, "tileId": 21, "__tileX": 48, "__tileY": 96 },
					{ "coordId": 321, "tileId": 21, "__tileX": 48, "__tileY": 96 },
					{ "coordId": 322, "tileId": 21, "__tileX": 48, "__tileY": 96 },
					{ "coordId": 323, "tileId": 21, "__tileX": 48, "__tileY": 96 },
					{ "coordId": 324, "tileId": 21, "__tileX": 48, "__tileY": 96 },
					{ "coordId": 325, "tileId": 21, "__tileX": 48, "__tileY": 96 },
					{ "coordId": 326, "tileId": 21, "__tileX": 48, "__tileY": 96 },
					{ "coordId": 327, "tileId": 21, "__tileX": 48, "__tileY": 96 },
					{ "coordId": 328, "tileId": 21, "__tileX": 48, "__tileY": 96 },
					{ "coordId": 329, "tileId": 22, "__tileX": 96, "__tileY": 96 },
					{ "coordId": 330, "tileId": 21, "__tileX": 48, "__tileY": 96 },
					{ "coordId": 331, "tileId": 21, "__tileX": 48, "__tileY": 96 },
					{ "coordId": 332, "tileId": 21, "__tileX": 48, "__tileY": 96 },
					{ "coordId": 333, "tileId": 21, "__tileX": 48, "__tileY": 96 },
					{ "coordId": 334, "tileId": 22, "__tileX": 96, "__tileY": 96 },
					{ "coordId": 335, "tileId": 34, "__tileX": 192, "__tileY": 144 },
					{ "coordId": 336, "tileId": 34, "__tileX": 192, "__tileY": 144 },
					{ "coordId": 337, "tileId": 34, "__tileX": 192, "__tileY": 144 },
					{ "coordId": 338, "tileId": 34, "__tileX": 192, "__tileY": 144 },
					{ "coordId": 339, "tileId": 34, "__tileX": 192, "__tileY": 144 },
					{ "coordId": 340, "tileId": 34, "__tileX": 192, "__tileY": 144 },
					{ "coordId": 341, "tileId": 34, "__tileX": 192, "__tileY": 144 },
					{ "coordId": 342, "tileId": 34, "__tileX": 192, "__tileY": 144 },
					{ "coordId": 343, "tileId": 34, "__tileX": 192, "__tileY": 144 },
					{ "coordId": 344, "tileId": 34, "__tileX": 192, "__tileY": 144 },
					{ "coordId": 345, "tileId": 34, "__tileX": 192, "__tileY": 144 },
					{ "coordId": 346, "tileId": 34, "__tileX": 192, "__tileY": 144 },
					{ "coordId": 347, "tileId": 34, "__tileX": 192, "__tileY": 144 },
					{ "coordId": 348, "tileId": 34, "__tileX": 192, "__tileY": 144 },
					{ "coordId": 349, "tileId": 34, "__tileX": 192, "__tileY": 144 },
					{ "coordId": 350, "tileId": 34, "__tileX": 192, "__tileY": 144 },
					{ "coordId": 351, "tileId": 34, "__tileX": 192, "__tileY": 144 },
					{ "coordId": 352, "tileId": 42, "__tileX": 96, "__tileY": 192 },
					{ "coordId": 353, "tileId": 42, "__tileX": 96, "__tileY": 192 },
					{ "coordId": 365, "tileId": 90, "__tileX": 0, "__tileY": 432 },
					{ "coordId": 366, "tileId": 91, "__tileX": 48, "__tileY": 432 },
					{ "coordId": 367, "tileId": 86, "__tileX": 288, "__tileY": 384 },
					{ "coordId": 368, "tileId": 86, "__tileX": 288, "__tileY": 384 },
					{ "coordId": 369, "tileId": 86, "__tileX": 288, "__tileY": 384 },
					{ "coordId": 370, "tileId": 86, "__tileX": 288, "__tileY": 384 },
					{ "coordId": 371, "tileId": 86, "__tileX": 288, "__tileY": 384 },
					{ "coordId": 372, "tileId": 86, "__tileX": 288, "__tileY": 384 },
					{ "coordId": 373, "tileId": 86, "__tileX": 288, "__tileY": 384 },
					{ "coordId": 374, "tileId": 86, "__tileX": 288, "__tileY": 384 },
					{ "coordId": 375, "tileId": 86, "__tileX": 288, "__tileY": 384 },
					{ "coordId": 376, "tileId": 86, "__tileX": 288, "__tileY": 384 },
					{ "coordId": 377, "tileId": 86, "__tileX": 288, "__tileY": 384 },
					{ "coordId": 378, "tileId": 86, "__tileX": 288, "__tileY": 384 },
					{ "coordId": 379, "tileId": 86, "__tileX": 288, "__tileY": 384 },
					{ "coordId": 380, "tileId": 42, "__tileX": 96, "__tileY": 192 },
					{ "coordId": 381, "tileId": 42, "__tileX": 96, "__tileY": 192 },
					{ "coordId": 382, "tileId": 42, "__tileX": 96, "__tileY": 192 },
					{ "coordId": 383, "tileId": 42, "__tileX": 96, "__tileY": 192 },
					{ "coordId": 384, "tileId": 42, "__tileX": 96, "__tileY": 192 },
					{ "coordId": 385, "tileId": 42, "__tileX": 96, "__tileY": 192 },
					{ "coordId": 386, "tileId": 42, "__tileX": 96, "__tileY": 192 },
					{ "coordId": 387, "tileId": 42, "__tileX": 96, "__tileY": 192 },
					{ "coordId": 388, "tileId": 42, "__tileX": 96, "__tileY": 192 },
					{ "coordId": 389, "tileId": 42, "__tileX": 96, "__tileY": 192 },
					{ "coordId": 390, "tileId": 42, "__tileX": 96, "__tileY": 192 },
					{ "coordId": 391, "tileId": 42, "__tileX": 96, "__tileY": 192 },
					{ "coordId": 392, "tileId": 42, "__tileX": 96, "__tileY": 192 },
					{ "coordId": 393, "tileId": 42, "__tileX": 96, "__tileY": 192 },
					{ "coordId": 394, "tileId": 42, "__tileX": 96, "__tileY": 192 },
					{ "coordId": 395, "tileId": 42, "__tileX": 96, "__tileY": 192 },
					{ "coordId": 396, "tileId": 42, "__tileX": 96, "__tileY": 192 },
					{ "coordId": 397, "tileId": 42, "__tileX": 96, "__tileY": 192 },
					{ "coordId": 398, "tileId": 42, "__tileX": 96, "__tileY": 192 },
					{ "coordId": 410, "tileId": 93, "__tileX": 144, "__tileY": 432 },
					{ "coordId": 411, "tileId": 94, "__tileX": 192, "__tileY": 432 },
					{ "coordId": 412, "tileId": 42, "__tileX": 96, "__tileY": 192 },
					{ "coordId": 413, "tileId": 42, "__tileX": 96, "__tileY": 192 },
					{ "coordId": 414, "tileId": 42, "__tileX": 96, "__tileY": 192 },
					{ "coordId": 415, "tileId": 42, "__tileX": 96, "__tileY": 192 },
					{ "coordId": 416, "tileId": 42, "__tileX": 96, "__tileY": 192 },
					{ "coordId": 417, "tileId": 42, "__tileX": 96, "__tileY": 192 },
					{ "coordId": 418, "tileId": 42, "__tileX": 96, "__tileY": 192 },
					{ "coordId": 419, "tileId": 42, "__tileX": 96, "__tileY": 192 },
					{ "coordId": 420, "tileId": 42, "__tileX": 96, "__tileY": 192 },
					{ "coordId": 421, "tileId": 42, "__tileX": 96, "__tileY": 192 },
					{ "coordId": 422, "tileId": 42, "__tileX": 96, "__tileY": 192 },
					{ "coordId": 423, "tileId": 42, "__tileX": 96, "__tileY": 192 },
					{ "coordId": 424, "tileId": 42, "__tileX": 96, "__tileY": 192 },
					{ "coordId": 425, "tileId": 42, "__tileX": 96, "__tileY": 192 },
					{ "coordId": 426, "tileId": 42, "__tileX": 96, "__tileY": 192 },
					{ "coordId": 427, "tileId": 42, "__tileX": 96, "__tileY": 192 },
					{ "coordId": 428, "tileId": 42, "__tileX": 96, "__tileY": 192 },
					{ "coordId": 429, "tileId": 42, "__tileX": 96, "__tileY": 192 },
					{ "coordId": 430, "tileId": 42, "__tileX": 96, "__tileY": 192 },
					{ "coordId": 431, "tileId": 42, "__tileX": 96, "__tileY": 192 },
					{ "coordId": 432, "tileId": 42, "__tileX": 96, "__tileY": 192 },
					{ "coordId": 433, "tileId": 42, "__tileX": 96, "__tileY": 192 },
					{ "coordId": 434, "tileId": 42, "__tileX": 96, "__tileY": 192 },
					{ "coordId": 435, "tileId": 42, "__tileX": 96, "__tileY": 192 },
					{ "coordId": 436, "tileId": 42, "__tileX": 96, "__tileY": 192 },
					{ "coordId": 437, "tileId": 42, "__tileX": 96, "__tileY": 192 },
					{ "coordId": 438, "tileId": 42, "__tileX": 96, "__tileY": 192 },
					{ "coordId": 439, "tileId": 42, "__tileX": 96, "__tileY": 192 },
					{ "coordId": 440, "tileId": 42, "__tileX": 96, "__tileY": 192 },
					{ "coordId": 441, "tileId": 42, "__tileX": 96, "__tileY": 192 },
					{ "coordId": 442, "tileId": 42, "__tileX": 96, "__tileY": 192 },
					{ "coordId": 443, "tileId": 42, "__tileX": 96, "__tileY": 192 },
					{ "coordId": 455, "tileId": 93, "__tileX": 144, "__tileY": 432 },
					{ "coordId": 456, "tileId": 94, "__tileX": 192, "__tileY": 432 },
					{ "coordId": 457, "tileId": 42, "__tileX": 96, "__tileY": 192 },
					{ "coordId": 458, "tileId": 42, "__tileX": 96, "__tileY": 192 },
					{ "coordId": 459, "tileId": 42, "__tileX": 96, "__tileY": 192 },
					{ "coordId": 460, "tileId": 42, "__tileX": 96, "__tileY": 192 },
					{ "coordId": 461, "tileId": 42, "__tileX": 96, "__tileY": 192 },
					{ "coordId": 462, "tileId": 42, "__tileX": 96, "__tileY": 192 },
					{ "coordId": 463, "tileId": 42, "__tileX": 96, "__tileY": 192 },
					{ "coordId": 464, "tileId": 42, "__tileX": 96, "__tileY": 192 },
					{ "coordId": 465, "tileId": 42, "__tileX": 96, "__tileY": 192 },
					{ "coordId": 466, "tileId": 42, "__tileX": 96, "__tileY": 192 },
					{ "coordId": 467, "tileId": 42, "__tileX": 96, "__tileY": 192 },
					{ "coordId": 468, "tileId": 42, "__tileX": 96, "__tileY": 192 },
					{ "coordId": 469, "tileId": 42, "__tileX": 96, "__tileY": 192 },
					{ "coordId": 470, "tileId": 42, "__tileX": 96, "__tileY": 192 },
					{ "coordId": 471, "tileId": 42, "__tileX": 96, "__tileY": 192 },
					{ "coordId": 472, "tileId": 42, "__tileX": 96, "__tileY": 192 },
					{ "coordId": 473, "tileId": 42, "__tileX": 96, "__tileY": 192 },
					{ "coordId": 474, "tileId": 42, "__tileX": 96, "__tileY": 192 },
					{ "coordId": 475, "tileId": 42, "__tileX": 96, "__tileY": 192 },
					{ "coordId": 476, "tileId": 42, "__tileX": 96, "__tileY": 192 },
					{ "coordId": 477, "tileId": 42, "__tileX": 96, "__tileY": 192 },
					{ "coordId": 478, "tileId": 42, "__tileX": 96, "__tileY": 192 },
					{ "coordId": 479, "tileId": 42, "__tileX": 96, "__tileY": 192 },
					{ "coordId": 480, "tileId": 42, "__tileX": 96, "__tileY": 192 },
					{ "coordId": 481, "tileId": 42, "__tileX": 96, "__tileY": 192 },
					{ "coordId": 482, "tileId": 42, "__tileX": 96, "__tileY": 192 },
					{ "coordId": 483, "tileId": 42, "__tileX": 96, "__tileY": 192 },
					{ "coordId": 484, "tileId": 42, "__tileX": 96, "__tileY": 192 },
					{ "coordId": 485, "tileId": 42, "__tileX": 96, "__tileY": 192 },
					{ "coordId": 486, "tileId": 42, "__tileX": 96, "__tileY": 192 },
					{ "coordId": 487, "tileId": 42, "__tileX": 96, "__tileY": 192 },
					{ "coordId": 488, "tileId": 42, "__tileX": 96, "__tileY": 192 },
					{ "coordId": 500, "tileId": 93, "__tileX": 144, "__tileY": 432 },
					{ "coordId": 501, "tileId": 84, "__tileX": 192, "__tileY": 384 },
					{ "coordId": 502, "tileId": 82, "__tileX": 96, "__tileY": 384 },
					{ "coordId": 503, "tileId": 32, "__tileX": 96, "__tileY": 144 },
					{ "coordId": 504, "tileId": 32, "__tileX": 96, "__tileY": 144 },
					{ "coordId": 505, "tileId": 32, "__tileX": 96, "__tileY": 144 },
					{ "coordId": 506, "tileId": 32, "__tileX": 96, "__tileY": 144 },
					{ "coordId": 507, "tileId": 32, "__tileX": 96, "__tileY": 144 },
					{ "coordId": 508, "tileId": 32, "__tileX": 96, "__tileY": 144 },
					{ "coordId": 509, "tileId": 32, "__tileX": 96, "__tileY": 144 },
					{ "coordId": 510, "tileId": 32, "__tileX": 96, "__tileY": 144 },
					{ "coordId": 511, "tileId": 32, "__tileX": 96, "__tileY": 144 },
					{ "coordId": 512, "tileId": 32, "__tileX": 96, "__tileY": 144 },
					{ "coordId": 513, "tileId": 32, "__tileX": 96, "__tileY": 144 },
					{ "coordId": 514, "tileId": 32, "__tileX": 96, "__tileY": 144 },
					{ "coordId": 515, "tileId": 42, "__tileX": 96, "__tileY": 192 },
					{ "coordId": 516, "tileId": 42, "__tileX": 96, "__tileY": 192 },
					{ "coordId": 517, "tileId": 42, "__tileX": 96, "__tileY": 192 },
					{ "coordId": 518, "tileId": 42, "__tileX": 96, "__tileY": 192 },
					{ "coordId": 519, "tileId": 42, "__tileX": 96, "__tileY": 192 },
					{ "coordId": 520, "tileId": 42, "__tileX": 96, "__tileY": 192 },
					{ "coordId": 521, "tileId": 42, "__tileX": 96, "__tileY": 192 },
					{ "coordId": 522, "tileId": 42, "__tileX": 96, "__tileY": 192 },
					{ "coordId": 523, "tileId": 42, "__tileX": 96, "__tileY": 192 },
					{ "coordId": 524, "tileId": 42, "__tileX": 96, "__tileY": 192 },
					{ "coordId": 525, "tileId": 42, "__tileX": 96, "__tileY": 192 },
					{ "coordId": 526, "tileId": 42, "__tileX": 96, "__tileY": 192 },
					{ "coordId": 527, "tileId": 42, "__tileX": 96, "__tileY": 192 },
					{ "coordId": 528, "tileId": 42, "__tileX": 96, "__tileY": 192 },
					{ "coordId": 529, "tileId": 42, "__tileX": 96, "__tileY": 192 },
					{ "coordId": 530, "tileId": 42, "__tileX": 96, "__tileY": 192 },
					{ "coordId": 531, "tileId": 42, "__tileX": 96, "__tileY": 192 },
					{ "coordId": 532, "tileId": 42, "__tileX": 96, "__tileY": 192 },
					{ "coordId": 533, "tileId": 42, "__tileX": 96, "__tileY": 192 },
					{ "coordId": 545, "tileId": 93, "__tileX": 144, "__tileY": 432 },
					{ "coordId": 546, "tileId": 94, "__tileX": 192, "__tileY": 432 },
					{ "coordId": 547, "tileId": 42, "__tileX": 96, "__tileY": 192 },
					{ "coordId": 548, "tileId": 42, "__tileX": 96, "__tileY": 192 },
					{ "coordId": 549, "tileId": 42, "__tileX": 96, "__tileY": 192 },
					{ "coordId": 550, "tileId": 42, "__tileX": 96, "__tileY": 192 },
					{ "coordId": 551, "tileId": 42, "__tileX": 96, "__tileY": 192 },
					{ "coordId": 552, "tileId": 42, "__tileX": 96, "__tileY": 192 },
					{ "coordId": 553, "tileId": 11, "__tileX": 48, "__tileY": 48 },
					{ "coordId": 554, "tileId": 11, "__tileX": 48, "__tileY": 48 },
					{ "coordId": 555, "tileId": 11, "__tileX": 48, "__tileY": 48 },
					{ "coordId": 556, "tileId": 11, "__tileX": 48, "__tileY": 48 },
					{ "coordId": 557, "tileId": 11, "__tileX": 48, "__tileY": 48 },
					{ "coordId": 558, "tileId": 11, "__tileX": 48, "__tileY": 48 },
					{ "coordId": 559, "tileId": 11, "__tileX": 48, "__tileY": 48 },
					{ "coordId": 560, "tileId": 11, "__tileX": 48, "__tileY": 48 },
					{ "coordId": 561, "tileId": 11, "__tileX": 48, "__tileY": 48 },
					{ "coordId": 562, "tileId": 11, "__tileX": 48, "__tileY": 48 },
					{ "coordId": 563, "tileId": 11, "__tileX": 48, "__tileY": 48 },
					{ "coordId": 564, "tileId": 42, "__tileX": 96, "__tileY": 192 },
					{ "coordId": 565, "tileId": 42, "__tileX": 96, "__tileY": 192 },
					{ "coordId": 566, "tileId": 42, "__tileX": 96, "__tileY": 192 },
					{ "coordId": 567, "tileId": 42, "__tileX": 96, "__tileY": 192 },
					{ "coordId": 568, "tileId": 42, "__tileX": 96, "__tileY": 192 },
					{ "coordId": 569, "tileId": 42, "__tileX": 96, "__tileY": 192 },
					{ "coordId": 570, "tileId": 42, "__tileX": 96, "__tileY": 192 },
					{ "coordId": 571, "tileId": 42, "__tileX": 96, "__tileY": 192 },
					{ "coordId": 572, "tileId": 42, "__tileX": 96, "__tileY": 192 },
					{ "coordId": 573, "tileId": 42, "__tileX": 96, "__tileY": 192 },
					{ "coordId": 574, "tileId": 42, "__tileX": 96, "__tileY": 192 },
					{ "coordId": 575, "tileId": 42, "__tileX": 96, "__tileY": 192 },
					{ "coordId": 576, "tileId": 42, "__tileX": 96, "__tileY": 192 },
					{ "coordId": 577, "tileId": 42, "__tileX": 96, "__tileY": 192 },
					{ "coordId": 578, "tileId": 42, "__tileX": 96, "__tileY": 192 },
					{ "coordId": 590, "tileId": 93, "__tileX": 144, "__tileY": 432 },
					{ "coordId": 591, "tileId": 94, "__tileX": 192, "__tileY": 432 },
					{ "coordId": 592, "tileId": 42, "__tileX": 96, "__tileY": 192 },
					{ "coordId": 593, "tileId": 42, "__tileX": 96, "__tileY": 192 },
					{ "coordId": 594, "tileId": 42, "__tileX": 96, "__tileY": 192 },
					{ "coordId": 595, "tileId": 42, "__tileX": 96, "__tileY": 192 },
					{ "coordId": 596, "tileId": 42, "__tileX": 96, "__tileY": 192 },
					{ "coordId": 597, "tileId": 42, "__tileX": 96, "__tileY": 192 },
					{ "coordId": 598, "tileId": 21, "__tileX": 48, "__tileY": 96 },
					{ "coordId": 599, "tileId": 21, "__tileX": 48, "__tileY": 96 },
					{ "coordId": 600, "tileId": 21, "__tileX": 48, "__tileY": 96 },
					{ "coordId": 601, "tileId": 21, "__tileX": 48, "__tileY": 96 },
					{ "coordId": 602, "tileId": 21, "__tileX": 48, "__tileY": 96 },
					{ "coordId": 603, "tileId": 21, "__tileX": 48, "__tileY": 96 },
					{ "coordId": 604, "tileId": 21, "__tileX": 48, "__tileY": 96 },
					{ "coordId": 605, "tileId": 21, "__tileX": 48, "__tileY": 96 },
					{ "coordId": 606, "tileId": 21, "__tileX": 48, "__tileY": 96 },
					{ "coordId": 607, "tileId": 21, "__tileX": 48, "__tileY": 96 },
					{ "coordId": 608, "tileId": 21, "__tileX": 48, "__tileY": 96 },
					{ "coordId": 609, "tileId": 42, "__tileX": 96, "__tileY": 192 },
					{ "coordId": 610, "tileId": 42, "__tileX": 96, "__tileY": 192 },
					{ "coordId": 611, "tileId": 42, "__tileX": 96, "__tileY": 192 },
					{ "coordId": 612, "tileId": 42, "__tileX": 96, "__tileY": 192 },
					{ "coordId": 613, "tileId": 42, "__tileX": 96, "__tileY": 192 },
					{ "coordId": 614, "tileId": 42, "__tileX": 96, "__tileY": 192 },
					{ "coordId": 615, "tileId": 42, "__tileX": 96, "__tileY": 192 },
					{ "coordId": 616, "tileId": 42, "__tileX": 96, "__tileY": 192 },
					{ "coordId": 617, "tileId": 42, "__tileX": 96, "__tileY": 192 },
					{ "coordId": 618, "tileId": 42, "__tileX": 96, "__tileY": 192 },
					{ "coordId": 619, "tileId": 42, "__tileX": 96, "__tileY": 192 },
					{ "coordId": 620, "tileId": 42, "__tileX": 96, "__tileY": 192 },
					{ "coordId": 621, "tileId": 42, "__tileX": 96, "__tileY": 192 },
					{ "coordId": 622, "tileId": 42, "__tileX": 96, "__tileY": 192 },
					{ "coordId": 623, "tileId": 42, "__tileX": 96, "__tileY": 192 },
					{ "coordId": 635, "tileId": 93, "__tileX": 144, "__tileY": 432 },
					{ "coordId": 636, "tileId": 94, "__tileX": 192, "__tileY": 432 },
					{ "coordId": 637, "tileId": 42, "__tileX": 96, "__tileY": 192 },
					{ "coordId": 638, "tileId": 42, "__tileX": 96, "__tileY": 192 },
					{ "coordId": 639, "tileId": 42, "__tileX": 96, "__tileY": 192 },
					{ "coordId": 640, "tileId": 42, "__tileX": 96, "__tileY": 192 },
					{ "coordId": 641, "tileId": 42, "__tileX": 96, "__tileY": 192 },
					{ "coordId": 642, "tileId": 42, "__tileX": 96, "__tileY": 192 },
					{ "coordId": 643, "tileId": 41, "__tileX": 48, "__tileY": 192 },
					{ "coordId": 644, "tileId": 66, "__tileX": 288, "__tileY": 288 },
					{ "coordId": 645, "tileId": 32, "__tileX": 96, "__tileY": 144 },
					{ "coordId": 646, "tileId": 32, "__tileX": 96, "__tileY": 144 },
					{ "coordId": 647, "tileId": 32, "__tileX": 96, "__tileY": 144 },
					{ "coordId": 648, "tileId": 32, "__tileX": 96, "__tileY": 144 },
					{ "coordId": 649, "tileId": 32, "__tileX": 96, "__tileY": 144 },
					{ "coordId": 650, "tileId": 32, "__tileX": 96, "__tileY": 144 },
					{ "coordId": 651, "tileId": 32, "__tileX": 96, "__tileY": 144 },
					{ "coordId": 652, "tileId": 65, "__tileX": 240, "__tileY": 288 },
					{ "coordId": 653, "tileId": 66, "__tileX": 288, "__tileY": 288 },
					{ "coordId": 654, "tileId": 42, "__tileX": 96, "__tileY": 192 },
					{ "coordId": 655, "tileId": 42, "__tileX": 96, "__tileY": 192 },
					{ "coordId": 656, "tileId": 42, "__tileX": 96, "__tileY": 192 },
					{ "coordId": 657, "tileId": 42, "__tileX": 96, "__tileY": 192 },
					{ "coordId": 658, "tileId": 42, "__tileX": 96, "__tileY": 192 },
					{ "coordId": 659, "tileId": 42, "__tileX": 96, "__tileY": 192 },
					{ "coordId": 660, "tileId": 42, "__tileX": 96, "__tileY": 192 },
					{ "coordId": 661, "tileId": 42, "__tileX": 96, "__tileY": 192 },
					{ "coordId": 662, "tileId": 42, "__tileX": 96, "__tileY": 192 },
					{ "coordId": 663, "tileId": 42, "__tileX": 96, "__tileY": 192 },
					{ "coordId": 664, "tileId": 42, "__tileX": 96, "__tileY": 192 },
					{ "coordId": 665, "tileId": 42, "__tileX": 96, "__tileY": 192 },
					{ "coordId": 666, "tileId": 42, "__tileX": 96, "__tileY": 192 },
					{ "coordId": 667, "tileId": 42, "__tileX": 96, "__tileY": 192 },
					{ "coordId": 668, "tileId": 42, "__tileX": 96, "__tileY": 192 },
					{ "coordId": 676, "tileId": 11, "__tileX": 48, "__tileY": 48 },
					{ "coordId": 677, "tileId": 12, "__tileX": 96, "__tileY": 48 },
					{ "coordId": 678, "tileId": 11, "__tileX": 48, "__tileY": 48 },
					{ "coordId": 679, "tileId": 12, "__tileX": 96, "__tileY": 48 },
					{ "coordId": 680, "tileId": 93, "__tileX": 144, "__tileY": 432 },
					{ "coordId": 681, "tileId": 94, "__tileX": 192, "__tileY": 432 },
					{ "coordId": 682, "tileId": 11, "__tileX": 48, "__tileY": 48 },
					{ "coordId": 683, "tileId": 12, "__tileX": 96, "__tileY": 48 },
					{ "coordId": 684, "tileId": 11, "__tileX": 48, "__tileY": 48 },
					{ "coordId": 685, "tileId": 12, "__tileX": 96, "__tileY": 48 },
					{ "coordId": 686, "tileId": 11, "__tileX": 48, "__tileY": 48 },
					{ "coordId": 687, "tileId": 12, "__tileX": 96, "__tileY": 48 },
					{ "coordId": 688, "tileId": 41, "__tileX": 48, "__tileY": 192 },
					{ "coordId": 689, "tileId": 76, "__tileX": 288, "__tileY": 336 },
					{ "coordId": 690, "tileId": 42, "__tileX": 96, "__tileY": 192 },
					{ "coordId": 691, "tileId": 42, "__tileX": 96, "__tileY": 192 },
					{ "coordId": 692, "tileId": 42, "__tileX": 96, "__tileY": 192 },
					{ "coordId": 693, "tileId": 42, "__tileX": 96, "__tileY": 192 },
					{ "coordId": 694, "tileId": 42, "__tileX": 96, "__tileY": 192 },
					{ "coordId": 695, "tileId": 42, "__tileX": 96, "__tileY": 192 },
					{ "coordId": 696, "tileId": 42, "__tileX": 96, "__tileY": 192 },
					{ "coordId": 697, "tileId": 75, "__tileX": 240, "__tileY": 336 },
					{ "coordId": 698, "tileId": 76, "__tileX": 288, "__tileY": 336 },
					{ "coordId": 699, "tileId": 42, "__tileX": 96, "__tileY": 192 },
					{ "coordId": 700, "tileId": 42, "__tileX": 96, "__tileY": 192 },
					{ "coordId": 701, "tileId": 42, "__tileX": 96, "__tileY": 192 },
					{ "coordId": 702, "tileId": 42, "__tileX": 96, "__tileY": 192 },
					{ "coordId": 703, "tileId": 42, "__tileX": 96, "__tileY": 192 },
					{ "coordId": 704, "tileId": 42, "__tileX": 96, "__tileY": 192 },
					{ "coordId": 705, "tileId": 42, "__tileX": 96, "__tileY": 192 },
					{ "coordId": 706, "tileId": 42, "__tileX": 96, "__tileY": 192 },
					{ "coordId": 707, "tileId": 42, "__tileX": 96, "__tileY": 192 },
					{ "coordId": 708, "tileId": 42, "__tileX": 96, "__tileY": 192 },
					{ "coordId": 709, "tileId": 42, "__tileX": 96, "__tileY": 192 },
					{ "coordId": 710, "tileId": 42, "__tileX": 96, "__tileY": 192 },
					{ "coordId": 711, "tileId": 42, "__tileX": 96, "__tileY": 192 },
					{ "coordId": 712, "tileId": 42, "__tileX": 96, "__tileY": 192 },
					{ "coordId": 713, "tileId": 42, "__tileX": 96, "__tileY": 192 },
					{ "coordId": 721, "tileId": 21, "__tileX": 48, "__tileY": 96 },
					{ "coordId": 722, "tileId": 22, "__tileX": 96, "__tileY": 96 },
					{ "coordId": 723, "tileId": 21, "__tileX": 48, "__tileY": 96 },
					{ "coordId": 724, "tileId": 22, "__tileX": 96, "__tileY": 96 },
					{ "coordId": 725, "tileId": 93, "__tileX": 144, "__tileY": 432 },
					{ "coordId": 726, "tileId": 94, "__tileX": 192, "__tileY": 432 },
					{ "coordId": 727, "tileId": 21, "__tileX": 48, "__tileY": 96 },
					{ "coordId": 728, "tileId": 22, "__tileX": 96, "__tileY": 96 },
					{ "coordId": 729, "tileId": 21, "__tileX": 48, "__tileY": 96 },
					{ "coordId": 730, "tileId": 22, "__tileX": 96, "__tileY": 96 },
					{ "coordId": 731, "tileId": 21, "__tileX": 48, "__tileY": 96 },
					{ "coordId": 732, "tileId": 22, "__tileX": 96, "__tileY": 96 },
					{ "coordId": 733, "tileId": 41, "__tileX": 48, "__tileY": 192 },
					{ "coordId": 734, "tileId": 42, "__tileX": 96, "__tileY": 192 },
					{ "coordId": 735, "tileId": 42, "__tileX": 96, "__tileY": 192 },
					{ "coordId": 736, "tileId": 42, "__tileX": 96, "__tileY": 192 },
					{ "coordId": 737, "tileId": 42, "__tileX": 96, "__tileY": 192 },
					{ "coordId": 738, "tileId": 42, "__tileX": 96, "__tileY": 192 },
					{ "coordId": 739, "tileId": 42, "__tileX": 96, "__tileY": 192 },
					{ "coordId": 740, "tileId": 42, "__tileX": 96, "__tileY": 192 },
					{ "coordId": 741, "tileId": 42, "__tileX": 96, "__tileY": 192 },
					{ "coordId": 742, "tileId": 42, "__tileX": 96, "__tileY": 192 },
					{ "coordId": 743, "tileId": 42, "__tileX": 96, "__tileY": 192 },
					{ "coordId": 744, "tileId": 42, "__tileX": 96, "__tileY": 192 },
					{ "coordId": 745, "tileId": 42, "__tileX": 96, "__tileY": 192 },
					{ "coordId": 746, "tileId": 42, "__tileX": 96, "__tileY": 192 },
					{ "coordId": 747, "tileId": 42, "__tileX": 96, "__tileY": 192 },
					{ "coordId": 748, "tileId": 42, "__tileX": 96, "__tileY": 192 },
					{ "coordId": 749, "tileId": 42, "__tileX": 96, "__tileY": 192 },
					{ "coordId": 750, "tileId": 42, "__tileX": 96, "__tileY": 192 },
					{ "coordId": 751, "tileId": 42, "__tileX": 96, "__tileY": 192 },
					{ "coordId": 752, "tileId": 42, "__tileX": 96, "__tileY": 192 },
					{ "coordId": 753, "tileId": 42, "__tileX": 96, "__tileY": 192 },
					{ "coordId": 754, "tileId": 42, "__tileX": 96, "__tileY": 192 },
					{ "coordId": 755, "tileId": 42, "__tileX": 96, "__tileY": 192 },
					{ "coordId": 756, "tileId": 42, "__tileX": 96, "__tileY": 192 },
					{ "coordId": 757, "tileId": 42, "__tileX": 96, "__tileY": 192 },
					{ "coordId": 758, "tileId": 42, "__tileX": 96, "__tileY": 192 },
					{ "coordId": 766, "tileId": 86, "__tileX": 288, "__tileY": 384 },
					{ "coordId": 767, "tileId": 86, "__tileX": 288, "__tileY": 384 },
					{ "coordId": 768, "tileId": 90, "__tileX": 0, "__tileY": 432 },
					{ "coordId": 769, "tileId": 91, "__tileX": 48, "__tileY": 432 },
					{ "coordId": 770, "tileId": 83, "__tileX": 144, "__tileY": 384 },
					{ "coordId": 771, "tileId": 84, "__tileX": 192, "__tileY": 384 },
					{ "coordId": 772, "tileId": 86, "__tileX": 288, "__tileY": 384 },
					{ "coordId": 773, "tileId": 86, "__tileX": 288, "__tileY": 384 },
					{ "coordId": 774, "tileId": 86, "__tileX": 288, "__tileY": 384 },
					{ "coordId": 775, "tileId": 86, "__tileX": 288, "__tileY": 384 },
					{ "coordId": 776, "tileId": 86, "__tileX": 288, "__tileY": 384 },
					{ "coordId": 777, "tileId": 86, "__tileX": 288, "__tileY": 384 },
					{ "coordId": 778, "tileId": 42, "__tileX": 96, "__tileY": 192 },
					{ "coordId": 779, "tileId": 42, "__tileX": 96, "__tileY": 192 },
					{ "coordId": 780, "tileId": 42, "__tileX": 96, "__tileY": 192 },
					{ "coordId": 781, "tileId": 42, "__tileX": 96, "__tileY": 192 },
					{ "coordId": 782, "tileId": 42, "__tileX": 96, "__tileY": 192 },
					{ "coordId": 783, "tileId": 42, "__tileX": 96, "__tileY": 192 },
					{ "coordId": 784, "tileId": 42, "__tileX": 96, "__tileY": 192 },
					{ "coordId": 785, "tileId": 42, "__tileX": 96, "__tileY": 192 },
					{ "coordId": 786, "tileId": 42, "__tileX": 96, "__tileY": 192 },
					{ "coordId": 787, "tileId": 42, "__tileX": 96, "__tileY": 192 },
					{ "coordId": 788, "tileId": 42, "__tileX": 96, "__tileY": 192 },
					{ "coordId": 789, "tileId": 42, "__tileX": 96, "__tileY": 192 },
					{ "coordId": 790, "tileId": 42, "__tileX": 96, "__tileY": 192 },
					{ "coordId": 791, "tileId": 42, "__tileX": 96, "__tileY": 192 },
					{ "coordId": 792, "tileId": 42, "__tileX": 96, "__tileY": 192 },
					{ "coordId": 793, "tileId": 42, "__tileX": 96, "__tileY": 192 },
					{ "coordId": 794, "tileId": 42, "__tileX": 96, "__tileY": 192 },
					{ "coordId": 795, "tileId": 42, "__tileX": 96, "__tileY": 192 },
					{ "coordId": 796, "tileId": 42, "__tileX": 96, "__tileY": 192 },
					{ "coordId": 797, "tileId": 42, "__tileX": 96, "__tileY": 192 },
					{ "coordId": 798, "tileId": 42, "__tileX": 96, "__tileY": 192 },
					{ "coordId": 799, "tileId": 42, "__tileX": 96, "__tileY": 192 },
					{ "coordId": 800, "tileId": 42, "__tileX": 96, "__tileY": 192 },
					{ "coordId": 801, "tileId": 42, "__tileX": 96, "__tileY": 192 },
					{ "coordId": 802, "tileId": 42, "__tileX": 96, "__tileY": 192 },
					{ "coordId": 803, "tileId": 42, "__tileX": 96, "__tileY": 192 },
					{ "coordId": 811, "tileId": 11, "__tileX": 48, "__tileY": 48 },
					{ "coordId": 812, "tileId": 12, "__tileX": 96, "__tileY": 48 },
					{ "coordId": 813, "tileId": 93, "__tileX": 144, "__tileY": 432 },
					{ "coordId": 814, "tileId": 94, "__tileX": 192, "__tileY": 432 },
					{ "coordId": 815, "tileId": 11, "__tileX": 48, "__tileY": 48 },
					{ "coordId": 816, "tileId": 11, "__tileX": 48, "__tileY": 48 },
					{ "coordId": 817, "tileId": 11, "__tileX": 48, "__tileY": 48 },
					{ "coordId": 818, "tileId": 11, "__tileX": 48, "__tileY": 48 },
					{ "coordId": 819, "tileId": 12, "__tileX": 96, "__tileY": 48 },
					{ "coordId": 820, "tileId": 11, "__tileX": 48, "__tileY": 48 },
					{ "coordId": 821, "tileId": 12, "__tileX": 96, "__tileY": 48 },
					{ "coordId": 823, "tileId": 76, "__tileX": 288, "__tileY": 336 },
					{ "coordId": 824, "tileId": 42, "__tileX": 96, "__tileY": 192 },
					{ "coordId": 825, "tileId": 42, "__tileX": 96, "__tileY": 192 },
					{ "coordId": 826, "tileId": 42, "__tileX": 96, "__tileY": 192 },
					{ "coordId": 827, "tileId": 42, "__tileX": 96, "__tileY": 192 },
					{ "coordId": 828, "tileId": 42, "__tileX": 96, "__tileY": 192 },
					{ "coordId": 829, "tileId": 42, "__tileX": 96, "__tileY": 192 },
					{ "coordId": 830, "tileId": 42, "__tileX": 96, "__tileY": 192 },
					{ "coordId": 831, "tileId": 42, "__tileX": 96, "__tileY": 192 },
					{ "coordId": 832, "tileId": 42, "__tileX": 96, "__tileY": 192 },
					{ "coordId": 833, "tileId": 42, "__tileX": 96, "__tileY": 192 },
					{ "coordId": 834, "tileId": 42, "__tileX": 96, "__tileY": 192 },
					{ "coordId": 835, "tileId": 42, "__tileX": 96, "__tileY": 192 },
					{ "coordId": 836, "tileId": 42, "__tileX": 96, "__tileY": 192 },
					{ "coordId": 837, "tileId": 42, "__tileX": 96, "__tileY": 192 },
					{ "coordId": 838, "tileId": 42, "__tileX": 96, "__tileY": 192 },
					{ "coordId": 839, "tileId": 42, "__tileX": 96, "__tileY": 192 },
					{ "coordId": 840, "tileId": 42, "__tileX": 96, "__tileY": 192 },
					{ "coordId": 841, "tileId": 42, "__tileX": 96, "__tileY": 192 },
					{ "coordId": 842, "tileId": 42, "__tileX": 96, "__tileY": 192 },
					{ "coordId": 843, "tileId": 42, "__tileX": 96, "__tileY": 192 },
					{ "coordId": 844, "tileId": 42, "__tileX": 96, "__tileY": 192 },
					{ "coordId": 845, "tileId": 42, "__tileX": 96, "__tileY": 192 },
					{ "coordId": 846, "tileId": 42, "__tileX": 96, "__tileY": 192 },
					{ "coordId": 847, "tileId": 42, "__tileX": 96, "__tileY": 192 },
					{ "coordId": 848, "tileId": 42, "__tileX": 96, "__tileY": 192 },
					{ "coordId": 856, "tileId": 21, "__tileX": 48, "__tileY": 96 },
					{ "coordId": 857, "tileId": 22, "__tileX": 96, "__tileY": 96 },
					{ "coordId": 858, "tileId": 42, "__tileX": 96, "__tileY": 192 },
					{ "coordId": 859, "tileId": 42, "__tileX": 96, "__tileY": 192 },
					{ "coordId": 860, "tileId": 21, "__tileX": 48, "__tileY": 96 },
					{ "coordId": 861, "tileId": 21, "__tileX": 48, "__tileY": 96 },
					{ "coordId": 862, "tileId": 21, "__tileX": 48, "__tileY": 96 },
					{ "coordId": 863, "tileId": 21, "__tileX": 48, "__tileY": 96 },
					{ "coordId": 864, "tileId": 22, "__tileX": 96, "__tileY": 96 },
					{ "coordId": 865, "tileId": 21, "__tileX": 48, "__tileY": 96 },
					{ "coordId": 866, "tileId": 22, "__tileX": 96, "__tileY": 96 },
					{ "coordId": 867, "tileId": 42, "__tileX": 96, "__tileY": 192 },
					{ "coordId": 868, "tileId": 41, "__tileX": 48, "__tileY": 192 },
					{ "coordId": 869, "tileId": 42, "__tileX": 96, "__tileY": 192 },
					{ "coordId": 870, "tileId": 42, "__tileX": 96, "__tileY": 192 },
					{ "coordId": 871, "tileId": 42, "__tileX": 96, "__tileY": 192 },
					{ "coordId": 872, "tileId": 42, "__tileX": 96, "__tileY": 192 },
					{ "coordId": 873, "tileId": 42, "__tileX": 96, "__tileY": 192 },
					{ "coordId": 874, "tileId": 42, "__tileX": 96, "__tileY": 192 },
					{ "coordId": 875, "tileId": 42, "__tileX": 96, "__tileY": 192 },
					{ "coordId": 876, "tileId": 42, "__tileX": 96, "__tileY": 192 },
					{ "coordId": 877, "tileId": 42, "__tileX": 96, "__tileY": 192 },
					{ "coordId": 878, "tileId": 42, "__tileX": 96, "__tileY": 192 },
					{ "coordId": 879, "tileId": 42, "__tileX": 96, "__tileY": 192 },
					{ "coordId": 880, "tileId": 42, "__tileX": 96, "__tileY": 192 },
					{ "coordId": 881, "tileId": 42, "__tileX": 96, "__tileY": 192 },
					{ "coordId": 882, "tileId": 42, "__tileX": 96, "__tileY": 192 },
					{ "coordId": 883, "tileId": 42, "__tileX": 96, "__tileY": 192 },
					{ "coordId": 884, "tileId": 42, "__tileX": 96, "__tileY": 192 },
					{ "coordId": 885, "tileId": 42, "__tileX": 96, "__tileY": 192 },
					{ "coordId": 886, "tileId": 42, "__tileX": 96, "__tileY": 192 },
					{ "coordId": 887, "tileId": 42, "__tileX": 96, "__tileY": 192 },
					{ "coordId": 888, "tileId": 42, "__tileX": 96, "__tileY": 192 },
					{ "coordId": 889, "tileId": 42, "__tileX": 96, "__tileY": 192 },
					{ "coordId": 890, "tileId": 42, "__tileX": 96, "__tileY": 192 },
					{ "coordId": 891, "tileId": 42, "__tileX": 96, "__tileY": 192 },
					{ "coordId": 892, "tileId": 42, "__tileX": 96, "__tileY": 192 },
					{ "coordId": 893, "tileId": 42, "__tileX": 96, "__tileY": 192 },
					{ "coordId": 901, "tileId": 42, "__tileX": 96, "__tileY": 192 },
					{ "coordId": 902, "tileId": 42, "__tileX": 96, "__tileY": 192 },
					{ "coordId": 903, "tileId": 42, "__tileX": 96, "__tileY": 192 },
					{ "coordId": 904, "tileId": 42, "__tileX": 96, "__tileY": 192 },
					{ "coordId": 905, "tileId": 42, "__tileX": 96, "__tileY": 192 },
					{ "coordId": 906, "tileId": 42, "__tileX": 96, "__tileY": 192 },
					{ "coordId": 907, "tileId": 42, "__tileX": 96, "__tileY": 192 },
					{ "coordId": 908, "tileId": 42, "__tileX": 96, "__tileY": 192 },
					{ "coordId": 909, "tileId": 42, "__tileX": 96, "__tileY": 192 },
					{ "coordId": 910, "tileId": 42, "__tileX": 96, "__tileY": 192 },
					{ "coordId": 911, "tileId": 42, "__tileX": 96, "__tileY": 192 },
					{ "coordId": 912, "tileId": 42, "__tileX": 96, "__tileY": 192 },
					{ "coordId": 913, "tileId": 65, "__tileX": 240, "__tileY": 288 },
					{ "coordId": 914, "tileId": 66, "__tileX": 288, "__tileY": 288 },
					{ "coordId": 915, "tileId": 42, "__tileX": 96, "__tileY": 192 },
					{ "coordId": 916, "tileId": 42, "__tileX": 96, "__tileY": 192 },
					{ "coordId": 917, "tileId": 42, "__tileX": 96, "__tileY": 192 },
					{ "coordId": 918, "tileId": 42, "__tileX": 96, "__tileY": 192 },
					{ "coordId": 919, "tileId": 42, "__tileX": 96, "__tileY": 192 },
					{ "coordId": 920, "tileId": 42, "__tileX": 96, "__tileY": 192 },
					{ "coordId": 921, "tileId": 42, "__tileX": 96, "__tileY": 192 },
					{ "coordId": 922, "tileId": 65, "__tileX": 240, "__tileY": 288 },
					{ "coordId": 923, "tileId": 66, "__tileX": 288, "__tileY": 288 },
					{ "coordId": 924, "tileId": 42, "__tileX": 96, "__tileY": 192 },
					{ "coordId": 925, "tileId": 42, "__tileX": 96, "__tileY": 192 },
					{ "coordId": 926, "tileId": 42, "__tileX": 96, "__tileY": 192 },
					{ "coordId": 927, "tileId": 42, "__tileX": 96, "__tileY": 192 },
					{ "coordId": 928, "tileId": 42, "__tileX": 96, "__tileY": 192 },
					{ "coordId": 929, "tileId": 42, "__tileX": 96, "__tileY": 192 },
					{ "coordId": 930, "tileId": 42, "__tileX": 96, "__tileY": 192 },
					{ "coordId": 931, "tileId": 42, "__tileX": 96, "__tileY": 192 },
					{ "coordId": 932, "tileId": 42, "__tileX": 96, "__tileY": 192 },
					{ "coordId": 933, "tileId": 42, "__tileX": 96, "__tileY": 192 },
					{ "coordId": 934, "tileId": 42, "__tileX": 96, "__tileY": 192 },
					{ "coordId": 935, "tileId": 42, "__tileX": 96, "__tileY": 192 },
					{ "coordId": 936, "tileId": 42, "__tileX": 96, "__tileY": 192 },
					{ "coordId": 937, "tileId": 42, "__tileX": 96, "__tileY": 192 },
					{ "coordId": 938, "tileId": 42, "__tileX": 96, "__tileY": 192 },
					{ "coordId": 946, "tileId": 42, "__tileX": 96, "__tileY": 192 },
					{ "coordId": 947, "tileId": 42, "__tileX": 96, "__tileY": 192 },
					{ "coordId": 948, "tileId": 42, "__tileX": 96, "__tileY": 192 },
					{ "coordId": 949, "tileId": 42, "__tileX": 96, "__tileY": 192 },
					{ "coordId": 950, "tileId": 42, "__tileX": 96, "__tileY": 192 },
					{ "coordId": 951, "tileId": 42, "__tileX": 96, "__tileY": 192 },
					{ "coordId": 952, "tileId": 42, "__tileX": 96, "__tileY": 192 },
					{ "coordId": 953, "tileId": 42, "__tileX": 96, "__tileY": 192 },
					{ "coordId": 954, "tileId": 42, "__tileX": 96, "__tileY": 192 },
					{ "coordId": 955, "tileId": 42, "__tileX": 96, "__tileY": 192 },
					{ "coordId": 956, "tileId": 42, "__tileX": 96, "__tileY": 192 },
					{ "coordId": 957, "tileId": 42, "__tileX": 96, "__tileY": 192 },
					{ "coordId": 958, "tileId": 75, "__tileX": 240, "__tileY": 336 },
					{ "coordId": 959, "tileId": 76, "__tileX": 288, "__tileY": 336 },
					{ "coordId": 960, "tileId": 42, "__tileX": 96, "__tileY": 192 },
					{ "coordId": 961, "tileId": 42, "__tileX": 96, "__tileY": 192 },
					{ "coordId": 962, "tileId": 42, "__tileX": 96, "__tileY": 192 },
					{ "coordId": 963, "tileId": 42, "__tileX": 96, "__tileY": 192 },
					{ "coordId": 964, "tileId": 42, "__tileX": 96, "__tileY": 192 },
					{ "coordId": 965, "tileId": 42, "__tileX": 96, "__tileY": 192 },
					{ "coordId": 966, "tileId": 42, "__tileX": 96, "__tileY": 192 },
					{ "coordId": 967, "tileId": 75, "__tileX": 240, "__tileY": 336 },
					{ "coordId": 968, "tileId": 76, "__tileX": 288, "__tileY": 336 },
					{ "coordId": 969, "tileId": 42, "__tileX": 96, "__tileY": 192 },
					{ "coordId": 970, "tileId": 42, "__tileX": 96, "__tileY": 192 },
					{ "coordId": 971, "tileId": 42, "__tileX": 96, "__tileY": 192 },
					{ "coordId": 972, "tileId": 42, "__tileX": 96, "__tileY": 192 },
					{ "coordId": 973, "tileId": 42, "__tileX": 96, "__tileY": 192 },
					{ "coordId": 974, "tileId": 42, "__tileX": 96, "__tileY": 192 },
					{ "coordId": 975, "tileId": 42, "__tileX": 96, "__tileY": 192 },
					{ "coordId": 976, "tileId": 42, "__tileX": 96, "__tileY": 192 },
					{ "coordId": 977, "tileId": 42, "__tileX": 96, "__tileY": 192 },
					{ "coordId": 978, "tileId": 42, "__tileX": 96, "__tileY": 192 },
					{ "coordId": 979, "tileId": 42, "__tileX": 96, "__tileY": 192 },
					{ "coordId": 980, "tileId": 42, "__tileX": 96, "__tileY": 192 },
					{ "coordId": 981, "tileId": 42, "__tileX": 96, "__tileY": 192 },
					{ "coordId": 982, "tileId": 42, "__tileX": 96, "__tileY": 192 },
					{ "coordId": 983, "tileId": 42, "__tileX": 96, "__tileY": 192 },
					{ "coordId": 991, "tileId": 42, "__tileX": 96, "__tileY": 192 },
					{ "coordId": 992, "tileId": 42, "__tileX": 96, "__tileY": 192 },
					{ "coordId": 993, "tileId": 42, "__tileX": 96, "__tileY": 192 },
					{ "coordId": 994, "tileId": 42, "__tileX": 96, "__tileY": 192 },
					{ "coordId": 995, "tileId": 42, "__tileX": 96, "__tileY": 192 },
					{ "coordId": 996, "tileId": 42, "__tileX": 96, "__tileY": 192 },
					{ "coordId": 997, "tileId": 42, "__tileX": 96, "__tileY": 192 },
					{ "coordId": 998, "tileId": 42, "__tileX": 96, "__tileY": 192 },
					{ "coordId": 999, "tileId": 42, "__tileX": 96, "__tileY": 192 },
					{ "coordId": 1000, "tileId": 42, "__tileX": 96, "__tileY": 192 },
					{ "coordId": 1001, "tileId": 42, "__tileX": 96, "__tileY": 192 },
					{ "coordId": 1002, "tileId": 42, "__tileX": 96, "__tileY": 192 },
					{ "coordId": 1036, "tileId": 42, "__tileX": 96, "__tileY": 192 },
					{ "coordId": 1037, "tileId": 42, "__tileX": 96, "__tileY": 192 },
					{ "coordId": 1038, "tileId": 42, "__tileX": 96, "__tileY": 192 },
					{ "coordId": 1039, "tileId": 42, "__tileX": 96, "__tileY": 192 },
					{ "coordId": 1040, "tileId": 42, "__tileX": 96, "__tileY": 192 },
					{ "coordId": 1041, "tileId": 42, "__tileX": 96, "__tileY": 192 },
					{ "coordId": 1042, "tileId": 42, "__tileX": 96, "__tileY": 192 },
					{ "coordId": 1043, "tileId": 42, "__tileX": 96, "__tileY": 192 },
					{ "coordId": 1044, "tileId": 42, "__tileX": 96, "__tileY": 192 },
					{ "coordId": 1045, "tileId": 42, "__tileX": 96, "__tileY": 192 },
					{ "coordId": 1046, "tileId": 42, "__tileX": 96, "__tileY": 192 },
					{ "coordId": 1047, "tileId": 42, "__tileX": 96, "__tileY": 192 },
					{ "coordId": 1081, "tileId": 42, "__tileX": 96, "__tileY": 192 },
					{ "coordId": 1082, "tileId": 42, "__tileX": 96, "__tileY": 192 },
					{ "coordId": 1083, "tileId": 42, "__tileX": 96, "__tileY": 192 },
					{ "coordId": 1084, "tileId": 42, "__tileX": 96, "__tileY": 192 },
					{ "coordId": 1085, "tileId": 42, "__tileX": 96, "__tileY": 192 },
					{ "coordId": 1086, "tileId": 42, "__tileX": 96, "__tileY": 192 },
					{ "coordId": 1087, "tileId": 42, "__tileX": 96, "__tileY": 192 },
					{ "coordId": 1088, "tileId": 42, "__tileX": 96, "__tileY": 192 },
					{ "coordId": 1089, "tileId": 42, "__tileX": 96, "__tileY": 192 },
					{ "coordId": 1090, "tileId": 42, "__tileX": 96, "__tileY": 192 },
					{ "coordId": 1091, "tileId": 42, "__tileX": 96, "__tileY": 192 },
					{ "coordId": 1092, "tileId": 42, "__tileX": 96, "__tileY": 192 },
					{ "coordId": 1126, "tileId": 42, "__tileX": 96, "__tileY": 192 },
					{ "coordId": 1127, "tileId": 42, "__tileX": 96, "__tileY": 192 },
					{ "coordId": 1128, "tileId": 42, "__tileX": 96, "__tileY": 192 },
					{ "coordId": 1129, "tileId": 42, "__tileX": 96, "__tileY": 192 },
					{ "coordId": 1130, "tileId": 42, "__tileX": 96, "__tileY": 192 },
					{ "coordId": 1131, "tileId": 42, "__tileX": 96, "__tileY": 192 },
					{ "coordId": 1132, "tileId": 42, "__tileX": 96, "__tileY": 192 },
					{ "coordId": 1133, "tileId": 42, "__tileX": 96, "__tileY": 192 },
					{ "coordId": 1134, "tileId": 42, "__tileX": 96, "__tileY": 192 },
					{ "coordId": 1135, "tileId": 42, "__tileX": 96, "__tileY": 192 },
					{ "coordId": 1136, "tileId": 42, "__tileX": 96, "__tileY": 192 },
					{ "coordId": 1137, "tileId": 42, "__tileX": 96, "__tileY": 192 }
				],
				"entityInstances": []
			}
		]
	} ]
}